<?xml version="1.0" encoding="UTF-8" standalone="no"?>
<svg
   xmlns:dc="http://purl.org/dc/elements/1.1/"
   xmlns:cc="http://creativecommons.org/ns#"
   xmlns:rdf="http://www.w3.org/1999/02/22-rdf-syntax-ns#"
   xmlns:svg="http://www.w3.org/2000/svg"
   xmlns="http://www.w3.org/2000/svg"
   xmlns:xlink="http://www.w3.org/1999/xlink"
   xmlns:sodipodi="http://sodipodi.sourceforge.net/DTD/sodipodi-0.dtd"
   xmlns:inkscape="http://www.inkscape.org/namespaces/inkscape"
   inkscape:export-ydpi="28.576742"
   inkscape:export-xdpi="28.576742"
   inkscape:export-filename="/home/melano/Pictures/Dragons/Glax/stickers/fire.png"
   sodipodi:docname="fire.svg"
   inkscape:version="0.92+devel (unknown)"
   id="svg4575"
   version="1.1"
   viewBox="0 0 455.08336 250.59818"
   height="947.1427"
   width="1720.0001">
  <defs
     id="defs4569">
    <inkscape:path-effect
       effect="taper_stroke"
       id="path-effect4844"
       is_visible="true"
       stroke_width="4.2333331"
       attach_start="1e-07"
       end_offset="0.35205677"
       smoothing="0.5"
       jointype="round"
       miter_limit="100" />
    <inkscape:path-effect
       effect="taper_stroke"
       id="path-effect4821"
       is_visible="true"
       stroke_width="4.2333331"
       attach_start="1.1203845"
       end_offset="1e-07"
       smoothing="0.5"
       jointype="extrapolated"
       miter_limit="100" />
    <inkscape:path-effect
       effect="taper_stroke"
       id="path-effect4638"
       is_visible="true"
       stroke_width="4.2333331"
       attach_start="1e-07"
       end_offset="0.35205677"
       smoothing="0.5"
       jointype="round"
       miter_limit="100" />
    <inkscape:path-effect
       effect="taper_stroke"
       id="path-effect4634"
       is_visible="true"
       stroke_width="4.2333331"
       attach_start="1.1203845"
       end_offset="1e-07"
       smoothing="0.5"
       jointype="extrapolated"
       miter_limit="100" />
    <linearGradient
       id="linearGradient4684"
       inkscape:collect="always">
      <stop
         id="stop4680"
         offset="0"
         style="stop-color:#ff5704;stop-opacity:1" />
      <stop
         id="stop4682"
         offset="1"
         style="stop-color:#b21d05;stop-opacity:0.39301309" />
    </linearGradient>
    <linearGradient
       id="linearGradient4647"
       inkscape:collect="always">
      <stop
         id="stop4643"
         offset="0"
         style="stop-color:#fffa48;stop-opacity:1;" />
      <stop
         id="stop4645"
         offset="1"
         style="stop-color:#fffa48;stop-opacity:0.0349345" />
    </linearGradient>
    <inkscape:path-effect
       miter_limit="100"
       jointype="round"
       smoothing="0.5"
       end_offset="0.35205677"
       attach_start="1e-07"
       stroke_width="4.2333331"
       is_visible="true"
       id="path-effect4605"
       effect="taper_stroke" />
    <inkscape:path-effect
       miter_limit="100"
       jointype="round"
       smoothing="0.5"
       end_offset="0.37508634"
       attach_start="0.2"
       stroke_width="4.2333331"
       is_visible="true"
       id="path-effect4601"
       effect="taper_stroke" />
    <inkscape:path-effect
       effect="taper_stroke"
       id="path-effect4596"
       is_visible="true"
       stroke_width="4.2333331"
       attach_start="1.1203845"
       end_offset="1e-07"
       smoothing="0.5"
       jointype="extrapolated"
       miter_limit="100" />
    <inkscape:path-effect
       effect="taper_stroke"
       id="path-effect4590"
       is_visible="true"
       stroke_width="4.2333331"
       attach_start="0.2"
       end_offset="0.41414315"
       smoothing="0.5"
       jointype="extrapolated"
       miter_limit="100" />
    <inkscape:path-effect
       effect="taper_stroke"
       id="path-effect4584"
       is_visible="true"
       stroke_width="4.23"
       attach_start="0.39467765"
       end_offset="0.35079978"
       smoothing="0.5"
       jointype="extrapolated"
       miter_limit="100" />
    <inkscape:path-effect
       miter_limit="100"
       jointype="extrapolated"
       smoothing="0.5"
       end_offset="1e-07"
       attach_start="1.1203845"
       stroke_width="4.2333331"
       is_visible="true"
       id="path-effect4562"
       effect="taper_stroke" />
    <inkscape:path-effect
       miter_limit="100"
       jointype="extrapolated"
       smoothing="0.5"
       end_offset="0.41414315"
       attach_start="0.2"
       stroke_width="4.2333331"
       is_visible="true"
       id="path-effect4560"
       effect="taper_stroke" />
    <inkscape:path-effect
       miter_limit="100"
       jointype="extrapolated"
       smoothing="0.5"
       end_offset="0.35079978"
       attach_start="0.39467765"
       stroke_width="4.23"
       is_visible="true"
       id="path-effect4554"
       effect="taper_stroke" />
    <inkscape:path-effect
       miter_limit="100"
       jointype="round"
       smoothing="0.5"
       end_offset="0.30439911"
       attach_start="0.22213667"
       stroke_width="4.2333331"
       is_visible="true"
       id="path-effect4541"
       effect="taper_stroke" />
    <inkscape:path-effect
       miter_limit="100"
       jointype="extrapolated"
       smoothing="0.5"
       end_offset="0.29165503"
       attach_start="0.3005154"
       stroke_width="4.23"
       is_visible="true"
       id="path-effect4533"
       effect="taper_stroke" />
    <inkscape:path-effect
       miter_limit="100"
       jointype="extrapolated"
       smoothing="0.5"
       end_offset="0.2"
       attach_start="0.2"
       stroke_width="4.23"
       is_visible="true"
       id="path-effect4523"
       effect="taper_stroke" />
    <inkscape:path-effect
       miter_limit="100"
       jointype="extrapolated"
       smoothing="0.5"
       end_offset="0.44099265"
       attach_start="0.34955375"
       stroke_width="4.23"
       is_visible="true"
       id="path-effect4500"
       effect="taper_stroke" />
    <radialGradient
       r="109.16728"
       fy="37.305534"
       fx="448.72794"
       cy="37.305534"
       cx="448.72797"
       gradientTransform="matrix(0.66682699,2.9216102,-7.7185923,1.7616883,811.57947,-838.15744)"
       gradientUnits="userSpaceOnUse"
       id="radialGradient4717"
       xlink:href="#linearGradient4684"
       inkscape:collect="always" />
    <radialGradient
       r="120.6755"
       fy="216.60588"
       fx="105.33595"
       cy="229.88435"
       cx="117.56184"
       gradientTransform="matrix(5.5949283,-1.7658956,0.51327836,1.6259134,-55.736647,397.38961)"
       gradientUnits="userSpaceOnUse"
       id="radialGradient4719"
       xlink:href="#linearGradient4647"
       inkscape:collect="always" />
    <clipPath
       id="clipPath4563"
       clipPathUnits="userSpaceOnUse">
      <rect
         style="opacity:1;fill:#b53147;fill-opacity:1;stroke:none;stroke-width:8;stroke-linecap:round;stroke-linejoin:round;stroke-miterlimit:8;stroke-dasharray:none;stroke-opacity:1"
         id="rect4565"
         width="868.6604"
         height="938.29272"
         x="890.42188"
         y="-92.983208" />
    </clipPath>
    <clipPath
       id="clipPath4571"
       clipPathUnits="userSpaceOnUse">
      <rect
         style="opacity:1;fill:#b53147;fill-opacity:1;stroke:none;stroke-width:8;stroke-linecap:round;stroke-linejoin:round;stroke-miterlimit:8;stroke-dasharray:none;stroke-opacity:1"
         id="rect4573"
         width="868.6604"
         height="938.29272"
         x="890.42188"
         y="-92.983208" />
    </clipPath>
    <clipPath
       id="clipPath4719"
       clipPathUnits="userSpaceOnUse">
      <path
         sodipodi:nodetypes="cccccscccccsssccccc"
         inkscape:connector-curvature="0"
         clip-path="none"
         id="path4721"
         d="M 890,-47.857422 V 434.27148 c -2.64196,0.48613 -5.31675,1.65633 -8.50977,3.56836 -5.12126,3.06675 -11.10723,8.07259 -18.32031,13.83985 -14.42619,11.53451 -34.0575,25.89836 -64.61328,32.5625 -24.31294,5.30264 -46.27507,2.62835 -74.96289,2.1914 -28.68782,-0.43695 -64.61045,1.11749 -117.8457,14.18555 -1.32565,0.32542 -2.63535,0.68549 -3.9375,1.06055 -17.82637,22.98745 -28.20921,41.96321 -30.98243,57.82031 -1.60647,9.18579 -1.02612,17.50058 2.18946,25.73438 15.58874,0.71152 31.2943,2.03138 45.75781,4.17968 17.02044,2.52805 32.26654,6.09202 44.01367,11.60938 25.96974,12.1974 49.18615,39.20499 78.03321,61.20898 28.84705,22.004 61.97802,39.16528 106.79101,33.75391 17.37759,-2.09841 31.8824,-4.78122 42.38672,-8.38477 v 258.11328 h 859.2852 V -47.857422 Z"
         style="opacity:1;fill:#de6881;fill-opacity:1;fill-rule:nonzero;stroke:none;stroke-width:15.99999905;stroke-linecap:round;stroke-linejoin:round;stroke-miterlimit:8;stroke-dasharray:none;stroke-opacity:1" />
    </clipPath>
    <clipPath
       id="clipPath4723"
       clipPathUnits="userSpaceOnUse">
      <path
         sodipodi:nodetypes="cccccscccccsssccccc"
         inkscape:connector-curvature="0"
         clip-path="none"
         id="path4725"
         d="M 890,-47.857422 V 434.27148 c -2.64196,0.48613 -5.31675,1.65633 -8.50977,3.56836 -5.12126,3.06675 -11.10723,8.07259 -18.32031,13.83985 -14.42619,11.53451 -34.0575,25.89836 -64.61328,32.5625 -24.31294,5.30264 -46.27507,2.62835 -74.96289,2.1914 -28.68782,-0.43695 -64.61045,1.11749 -117.8457,14.18555 -1.32565,0.32542 -2.63535,0.68549 -3.9375,1.06055 -17.82637,22.98745 -28.20921,41.96321 -30.98243,57.82031 -1.60647,9.18579 -1.02612,17.50058 2.18946,25.73438 15.58874,0.71152 31.2943,2.03138 45.75781,4.17968 17.02044,2.52805 32.26654,6.09202 44.01367,11.60938 25.96974,12.1974 49.18615,39.20499 78.03321,61.20898 28.84705,22.004 61.97802,39.16528 106.79101,33.75391 17.37759,-2.09841 31.8824,-4.78122 42.38672,-8.38477 v 258.11328 h 859.2852 V -47.857422 Z"
         style="opacity:1;fill:#de6881;fill-opacity:1;fill-rule:nonzero;stroke:none;stroke-width:15.99999905;stroke-linecap:round;stroke-linejoin:round;stroke-miterlimit:8;stroke-dasharray:none;stroke-opacity:1" />
    </clipPath>
    <clipPath
       id="clipPath4824"
       clipPathUnits="userSpaceOnUse">
      <path
         sodipodi:nodetypes="cccsssccccscccccccscsssc"
         inkscape:connector-curvature="0"
         id="path4826"
         d="m 39.36238,214.75815 c 1.307971,0.98534 3.220069,1.47676 5.18201,1.1286 1.788176,-0.26876 3.499149,-0.98307 4.971775,-2.00981 5.615287,-3.8512 10.463964,-10.79076 16.272423,-17.23684 5.808459,-6.44608 12.393962,-12.32345 20.776811,-14.38125 14.085161,-3.45759 23.589931,-3.86885 31.180251,-3.75324 7.59032,0.11561 13.40085,0.82354 19.83365,-0.57945 8.08455,-1.76322 13.27901,-5.56386 17.09594,-8.6157 1.90846,-1.52592 3.49179,-2.85044 4.84679,-3.66185 1.355,-0.8114 2.35751,-1.11857 3.53703,-0.98247 1.54693,0.17849 2.46757,0.50933 2.92997,0.76943 0.4624,0.2601 0.4786,0.38533 0.49231,0.41961 0.0137,0.0343 0.016,0.0771 0.003,0.14582 -0.007,0.0343 -0.017,0.0658 -0.0196,0.0725 -0.003,0.007 0.0292,-0.0613 0.036,-0.0745 l 3.75816,1.94868 c 0.0473,-0.0912 0.0405,-0.08 0.0698,-0.14488 0.0292,-0.0648 0.0635,-0.14598 0.0999,-0.24285 0.0727,-0.19374 -4.5183,14.60351 -6.3698,16.08388 -3.70298,2.96074 -6.5171,14.4937 -13.75075,16.07135 -5.60475,1.22238 -22.29002,7.01602 -30.09242,6.89718 -7.80239,-0.11884 -13.03647,-3.28365 -27.477822,0.26138 -9.684795,2.3774 -16.523404,0.86121 -22.534529,7.53221 -6.011124,6.67099 -33.119364,-1.5414 -30.840905,0.3522 z"
         style="opacity:1;fill:#1a3460;fill-opacity:1;fill-rule:nonzero;stroke:none;stroke-width:4.23333311;stroke-linecap:round;stroke-linejoin:round;stroke-miterlimit:8;stroke-dasharray:none;stroke-opacity:1" />
    </clipPath>
    <clipPath
       id="clipPath4828"
       clipPathUnits="userSpaceOnUse">
      <path
         sodipodi:nodetypes="cccsssccccscccccccscssscc"
         inkscape:connector-curvature="0"
         id="path4830"
         d="m 39.36238,214.75815 c 1.307971,0.98534 3.220069,1.47676 5.18201,1.1286 1.788176,-0.26876 3.499149,-0.98307 4.971775,-2.00981 5.615287,-3.8512 10.463964,-10.79076 16.272423,-17.23684 5.808459,-6.44608 12.393962,-12.32345 20.776811,-14.38125 14.085161,-3.45759 23.589931,-3.86885 31.180251,-3.75324 7.59032,0.11561 13.40085,0.82354 19.83365,-0.57945 8.08455,-1.76322 13.27901,-5.56386 17.09594,-8.6157 1.90846,-1.52592 3.49179,-2.85044 4.84679,-3.66185 1.355,-0.8114 2.35751,-1.11857 3.53703,-0.98247 1.54693,0.17849 2.46757,0.50933 2.92997,0.76943 0.4624,0.2601 0.4786,0.38533 0.49231,0.41961 0.0137,0.0343 0.016,0.0771 0.003,0.14582 -0.007,0.0343 -0.017,0.0658 -0.0196,0.0725 -0.003,0.007 0.0292,-0.0613 0.036,-0.0745 l 3.75816,1.94868 c 0.0473,-0.0912 0.0405,-0.08 0.0698,-0.14488 0.0292,-0.0648 0.0635,-0.14598 0.0999,-0.24285 0.0727,-0.19374 -4.5183,14.60351 -6.3698,16.08388 -3.70298,2.96074 -6.5171,14.4937 -13.75075,16.07135 -5.60475,1.22238 -22.29002,7.01602 -30.09242,6.89718 -7.80239,-0.11884 -13.03647,-3.28365 -27.477822,0.26138 -9.684795,2.3774 -16.523404,0.86121 -22.534529,7.53221 -6.011124,6.67099 -33.119364,-1.5414 -30.840905,0.3522 z"
         style="opacity:1;fill:#1a3460;fill-opacity:1;fill-rule:nonzero;stroke:none;stroke-width:4.23333311;stroke-linecap:round;stroke-linejoin:round;stroke-miterlimit:8;stroke-dasharray:none;stroke-opacity:1" />
    </clipPath>
    <clipPath
       id="clipPath4832"
       clipPathUnits="userSpaceOnUse">
      <path
         sodipodi:nodetypes="cccsssccccscccccccscssscc"
         inkscape:connector-curvature="0"
         id="path4834"
         d="m 39.36238,214.75815 c 1.307971,0.98534 3.220069,1.47676 5.18201,1.1286 1.788176,-0.26876 3.499149,-0.98307 4.971775,-2.00981 5.615287,-3.8512 10.463964,-10.79076 16.272423,-17.23684 5.808459,-6.44608 12.393962,-12.32345 20.776811,-14.38125 14.085161,-3.45759 23.589931,-3.86885 31.180251,-3.75324 7.59032,0.11561 13.40085,0.82354 19.83365,-0.57945 8.08455,-1.76322 13.27901,-5.56386 17.09594,-8.6157 1.90846,-1.52592 3.49179,-2.85044 4.84679,-3.66185 1.355,-0.8114 2.35751,-1.11857 3.53703,-0.98247 1.54693,0.17849 2.46757,0.50933 2.92997,0.76943 0.4624,0.2601 0.4786,0.38533 0.49231,0.41961 0.0137,0.0343 0.016,0.0771 0.003,0.14582 -0.007,0.0343 -0.017,0.0658 -0.0196,0.0725 -0.003,0.007 0.0292,-0.0613 0.036,-0.0745 l 3.75816,1.94868 c 0.0473,-0.0912 0.0405,-0.08 0.0698,-0.14488 0.0292,-0.0648 0.0635,-0.14598 0.0999,-0.24285 0.0727,-0.19374 -4.5183,14.60351 -6.3698,16.08388 -3.70298,2.96074 -6.5171,14.4937 -13.75075,16.07135 -5.60475,1.22238 -22.29002,7.01602 -30.09242,6.89718 -7.80239,-0.11884 -13.03647,-3.28365 -27.477822,0.26138 -9.684795,2.3774 -16.523404,0.86121 -22.534529,7.53221 -6.011124,6.67099 -33.119364,-1.5414 -30.840905,0.3522 z"
         style="opacity:1;fill:#1a3460;fill-opacity:1;fill-rule:nonzero;stroke:none;stroke-width:4.23333311;stroke-linecap:round;stroke-linejoin:round;stroke-miterlimit:8;stroke-dasharray:none;stroke-opacity:1" />
    </clipPath>
    <clipPath
       id="clipPath4853"
       clipPathUnits="userSpaceOnUse">
      <path
         inkscape:connector-curvature="0"
         id="path4855"
         d="m 75.297443,188.14861 -5.279265,16.32407 c 1.855104,-0.001 3.767386,0.0248 5.704562,0.0873 4.827466,0.15576 9.786241,0.52381 14.289566,1.19269 4.503325,0.66889 8.537189,1.61185 11.645284,3.07165 6.87116,3.22723 13.01384,10.37299 20.64629,16.19488 7.63245,5.82189 16.39835,10.36248 28.25512,8.93072 5.3923,-0.65115 9.74424,-1.51374 12.56254,-2.7342 1.40915,-0.61023 2.41429,-1.29547 3.05046,-1.99574 0.0922,-0.10148 0.17554,-0.20298 0.25477,-0.3049 l 1.47949,-33.81757 z"
         style="opacity:1;fill:#ffffff;fill-opacity:1;stroke:none;stroke-width:3.17500019;stroke-linecap:round;stroke-linejoin:round;stroke-miterlimit:8;stroke-dasharray:none;stroke-opacity:1" />
    </clipPath>
    <clipPath
       id="clipPath4857"
       clipPathUnits="userSpaceOnUse">
      <path
         inkscape:connector-curvature="0"
         id="path4859"
         d="m 75.297443,188.14861 -5.279265,16.32407 c 1.855104,-0.001 3.767386,0.0248 5.704562,0.0873 4.827466,0.15576 9.786241,0.52381 14.289566,1.19269 4.503325,0.66889 8.537189,1.61185 11.645284,3.07165 6.87116,3.22723 13.01384,10.37299 20.64629,16.19488 7.63245,5.82189 16.39835,10.36248 28.25512,8.93072 5.3923,-0.65115 9.74424,-1.51374 12.56254,-2.7342 1.40915,-0.61023 2.41429,-1.29547 3.05046,-1.99574 0.0922,-0.10148 0.17554,-0.20298 0.25477,-0.3049 l 1.47949,-33.81757 z"
         style="opacity:1;fill:#ffffff;fill-opacity:1;stroke:none;stroke-width:3.17500019;stroke-linecap:round;stroke-linejoin:round;stroke-miterlimit:8;stroke-dasharray:none;stroke-opacity:1" />
    </clipPath>
  </defs>
  <sodipodi:namedview
     inkscape:document-rotation="0"
     fit-margin-bottom="0"
     fit-margin-right="0"
     fit-margin-left="0"
     fit-margin-top="0"
     inkscape:object-paths="false"
     inkscape:snap-smooth-nodes="true"
     inkscape:snap-global="false"
     inkscape:window-maximized="1"
     inkscape:window-y="0"
     inkscape:window-x="30"
     inkscape:window-height="1411"
     inkscape:window-width="2408"
     inkscape:pagecheckerboard="false"
     units="px"
     showgrid="false"
     inkscape:current-layer="layer2"
     inkscape:document-units="px"
     inkscape:cy="-402.02329"
     inkscape:cx="584.70639"
     inkscape:zoom="0.175"
     inkscape:pageshadow="2"
     inkscape:pageopacity="0.0"
     borderopacity="1.0"
     bordercolor="#666666"
     pagecolor="#ffffff"
     id="base" />
  <metadata
     id="metadata4572">
    <rdf:RDF>
      <cc:Work
         rdf:about="">
        <dc:format>image/svg+xml</dc:format>
        <dc:type
           rdf:resource="http://purl.org/dc/dcmitype/StillImage" />
        <dc:title />
      </cc:Work>
    </rdf:RDF>
  </metadata>
  <g
     transform="translate(73.705353,-49.803562)"
     sodipodi:insensitive="true"
     style="display:none"
     id="layer1"
     inkscape:groupmode="layer"
     inkscape:label="ref">
    <image
       sodipodi:absref="/home/melano/Pictures/Dragons/Glax/sketches/20170523_063533.jpg"
       xlink:href="../sketches/20170523_063533.jpg"
       y="-392.33929"
       x="-289.871"
       id="image4490"
       preserveAspectRatio="none"
       height="508"
       width="903.11108"
       transform="rotate(90)" />
  </g>
  <g
     transform="translate(73.705353,-49.803562)"
     style="opacity:1"
     inkscape:label="dragon"
     id="layer2"
     inkscape:groupmode="layer">
    <path
       sodipodi:nodetypes="ccc"
       inkscape:connector-curvature="0"
       id="path4618"
       d="m 16.036172,137.97462 c -22.7179102,3.87541 -70.960058,28.46421 -78.577242,46.10399 16.437078,-8.01808 68.4209995,-26.05877 81.650841,-26.19241"
       style="opacity:1;fill:#3a3c3f;fill-opacity:1;stroke:#292929;stroke-width:4.23333311;stroke-linecap:round;stroke-linejoin:round;stroke-miterlimit:8;stroke-dasharray:none;stroke-opacity:1" />
    <path
       sodipodi:nodetypes="ccc"
       inkscape:connector-curvature="0"
       id="path4616"
       d="m 40.357697,133.83194 c -8.364795,-0.96439 -22.606638,-0.20018 -25.123334,2.40543 -2.138156,6.1472 -6.1471991,22.18337 -6.1471991,22.18337"
       style="opacity:1;fill:#3250b0;fill-opacity:1;stroke:#1d2848;stroke-width:4.23333311;stroke-linecap:round;stroke-linejoin:round;stroke-miterlimit:8;stroke-dasharray:none;stroke-opacity:1" />
    <path
       style="opacity:1;fill:#3250b0;fill-opacity:1;stroke:none;stroke-width:4.23333311;stroke-linecap:round;stroke-linejoin:round;stroke-miterlimit:8;stroke-dasharray:none;stroke-opacity:1"
       d="m -28.731475,300.60813 c 5.612661,-43.29766 -1.202712,-114.79226 31.9387094,-141.78649 l 45.4358196,3.47451 23.519719,66.55011 -25.657875,78.84451"
       id="path4614"
       inkscape:connector-curvature="0"
       sodipodi:nodetypes="cc" />
    <path
       sodipodi:nodetypes="cccc"
       inkscape:connector-curvature="0"
       id="path4607"
       d="m 27.261492,308.49257 c 2.405425,-19.24341 20.045213,-59.86837 34.745038,-58.26475 5.078121,-0.80181 28.597838,-6.68174 34.745037,-5.34539 -17.907057,4.81085 -34.477769,42.22858 -33.141419,63.61014"
       style="opacity:1;fill:#c4d9f5;fill-opacity:1;stroke:#1d2848;stroke-width:4.23333311;stroke-linecap:round;stroke-linejoin:round;stroke-miterlimit:8;stroke-dasharray:none;stroke-opacity:1" />
    <path
       sodipodi:nodetypes="ccccsc"
       inkscape:connector-curvature="0"
       id="path4574"
       d="m 91.90714,194.14511 c 11.35895,-2.67269 35.58042,4.49969 42.72988,8.44192 7.14946,3.94222 10.82476,11.84288 20.17919,13.11242 9.35444,1.26952 14.1946,7.14471 14.51712,11.37494 -0.37797,7.18156 -16.06398,22.67858 -33.45089,17.95388 -17.3869,-4.72471 -72.949404,-19.27679 -69.169642,-26.45834"
       style="opacity:1;fill:#e84d66;fill-opacity:1;stroke:#1d2848;stroke-width:4.23333311;stroke-linecap:round;stroke-linejoin:round;stroke-miterlimit:8;stroke-dasharray:none;stroke-opacity:1" />
    <path
       sodipodi:nodetypes="cc"
       inkscape:connector-curvature="0"
       id="path4572"
       d="m 168.37502,166.96969 c -2.0655,5.39265 -23.4684,-0.60772 -29.61051,2.41609 l -4.1943,-9.62869 36.08138,-2.00452 z"
       style="opacity:1;fill:#e84d66;fill-opacity:1;stroke:#1d2848;stroke-width:4.23333311;stroke-linecap:round;stroke-linejoin:round;stroke-miterlimit:8;stroke-dasharray:none;stroke-opacity:1" />
    <path
       sodipodi:nodetypes="ccsc"
       inkscape:connector-curvature="0"
       id="path4570"
       d="m 123.02226,175.11166 c -7.08264,6.81537 -10.36815,10.97148 -1.94917,23.66678 -45.614413,34.63707 -60.596899,1.83762 -56.817137,-8.36774 3.779762,-10.20536 39.309527,-21.54464 58.766307,-15.29904 z"
       style="opacity:1;fill:#f797ab;fill-opacity:1;stroke:#de6881;stroke-width:4.23333311;stroke-linecap:round;stroke-linejoin:round;stroke-miterlimit:8;stroke-dasharray:none;stroke-opacity:1" />
    <path
       sodipodi:nodetypes="ccccccc"
       inkscape:connector-curvature="0"
       id="path4580"
       d="m 78.846024,198.91517 c 9.552245,-21.62901 28.971356,-22.70804 46.642066,-24.94643 l -21.65388,-10.06897 -42.495853,19.37704 1.202713,24.72243 16.971615,4.27631 z"
       style="opacity:1;fill:#e84d66;fill-opacity:1;stroke:#b53147;stroke-width:4.23333311;stroke-linecap:round;stroke-linejoin:round;stroke-miterlimit:8;stroke-dasharray:none;stroke-opacity:1" />
    <path
       sodipodi:nodetypes="csscsc"
       inkscape:connector-curvature="0"
       id="path4566"
       d="m 62.177083,209.87648 c 10.961308,-5.19717 24.648287,-18.78903 44.144927,-19.07715 19.1823,-0.28348 28.4156,11.11962 45.24644,10.66718 17.57589,-0.47247 40.34896,-16.15849 46.96355,-11.05581 -6.80358,4.7247 -19.08781,11.81176 -26.55283,20.5997 -8.69481,10.23566 -17.29241,18.52084 -30.80506,16.53647"
       style="opacity:1;fill:#e84d66;fill-opacity:1;stroke:none;stroke-width:4.23333311;stroke-linecap:round;stroke-linejoin:round;stroke-miterlimit:8;stroke-dasharray:none;stroke-opacity:1" />
    <path
       inkscape:original-d="m 62.177083,209.87648 c 10.961308,-5.19717 24.648287,-18.78903 44.144927,-19.07715 19.1823,-0.28348 28.4156,11.11962 45.24644,10.66718 17.57589,-0.47247 40.34896,-16.15849 46.96355,-11.05581 -6.80358,4.7247 -19.08781,11.81176 -26.55283,20.5997 -8.69481,10.23566 -17.29241,18.52084 -30.80506,16.53647"
       inkscape:path-effect="#path-effect4601"
       style="opacity:1;fill:#b53147;fill-opacity:1;fill-rule:nonzero;stroke:none;stroke-width:4.23333311;stroke-linecap:round;stroke-linejoin:round;stroke-miterlimit:8;stroke-dasharray:none;stroke-opacity:1"
       d="m 67.975579,204.13463 c -1.646878,1.03681 -3.077913,2.53647 -4.086855,3.67797 -1.028684,1.16384 -1.711641,2.06388 -1.711641,2.06388 0,0 1.128145,0.0613 2.726488,-0.20731 1.620281,-0.27225 3.609896,-0.86451 5.33209,-1.955 9.83533,-6.2099 21.198462,-14.57793 36.117629,-14.7984 18.65192,-0.27565 27.83133,11.13548 45.27204,10.66664 14.39049,-0.38684 31.85198,-10.37618 41.17736,-11.88645 -6.92035,4.55281 -16.2756,10.69112 -22.43672,17.94409 -5.39561,6.35179 -10.46631,11.63593 -16.63602,14.30118 -3.02187,1.31673 -5.63875,2.19222 -8.31293,2.81948 -2.45252,0.57527 -4.24291,0.78616 -4.24291,0.78616 0,0 1.58972,0.85 4.2826,1.33052 2.75044,0.4908 6.3903,0.4777 9.95205,-1.04994 6.99183,-3.0204 12.71221,-9.00568 18.18361,-15.4467 7.27589,-8.5653 19.26043,-15.44917 26.14697,-20.23148 a 2.1166666,2.1166666 0 0 0 0.0855,-3.41451 c -7.9592,-6.13994 -31.19902,10.15579 -48.3133,10.61585 -16.22097,0.43604 -25.50816,-10.95903 -45.22084,-10.66772 -16.275457,0.24052 -28.670583,9.36228 -38.315151,15.45174 z"
       id="path4599"
       inkscape:connector-curvature="0"
       sodipodi:nodetypes="csscsc" />
    <path
       inkscape:connector-curvature="0"
       id="path4576"
       d="m 85.422617,179.26041 c -11.528274,14.1741 -13.985118,23.43452 -4.913691,32.88392 -8.693451,6.61459 -36.474701,-4.15773 -36.474701,-4.15773 0,0 17.386906,-32.31697 41.388392,-28.72619 z"
       style="opacity:1;fill:#f797ab;fill-opacity:1;stroke:#de6881;stroke-width:4.23333311;stroke-linecap:round;stroke-linejoin:round;stroke-miterlimit:8;stroke-dasharray:none;stroke-opacity:1" />
    <path
       style="opacity:1;fill:#c4d9f5;fill-opacity:1;stroke:none;stroke-width:4.23333311;stroke-linecap:round;stroke-linejoin:round;stroke-miterlimit:8;stroke-dasharray:none;stroke-opacity:1"
       d="m 53.509339,207.68215 c 7.147157,-1.55301 36.157812,-2.15068 47.248181,3.05821 12.3353,5.79361 25.01406,28.33477 50.05498,25.31096 10.94032,-1.32109 17.95387,-3.40178 18.52083,-8.97693 2.83482,11.1503 -0.75595,30.04911 -21.16667,32.88393 -20.41071,2.83482 -23.90698,-9.07143 -40.91591,-10.96131 -17.008936,-1.88988 -30.656267,7.23467 -51.499263,5.29167 -22.300596,-2.07887 -34.206844,-11.1503 -32.127975,-27.78125 -0.708746,-13.26516 8.314972,-18.70863 13.72718,-15.63503 1.369756,2.50565 4.721491,8.78706 16.158647,-3.19025 z"
       id="path4603"
       inkscape:connector-curvature="0"
       sodipodi:nodetypes="csscsssccc" />
    <g
       id="g4867">
      <path
         style="opacity:1;fill:#ffffff;fill-opacity:1;stroke:#bcdeea;stroke-width:3.17500019;stroke-linecap:round;stroke-linejoin:round;stroke-miterlimit:8;stroke-dasharray:none;stroke-opacity:1"
         d="m 162.52977,166.0312 c 1.79539,2.64583 0.47247,8.97693 -1.79538,10.96131 -0.189,-2.83482 -1.88989,-7.74851 -3.87426,-9.26041 -2.36235,-4.91368 4.53571,-5.29167 5.66964,-1.7009 z"
         id="path4861"
         inkscape:connector-curvature="0"
         sodipodi:nodetypes="ccc" />
      <path
         sodipodi:nodetypes="ccc"
         inkscape:connector-curvature="0"
         id="path4863"
         d="m 150.62352,166.69266 c 1.79539,2.64583 0.47247,8.97693 -1.79538,10.96131 -0.189,-2.83482 -1.88989,-7.74851 -3.87426,-9.26041 -2.36235,-4.91368 4.53571,-5.29167 5.66964,-1.7009 z"
         style="opacity:1;fill:#ffffff;fill-opacity:1;stroke:#bcdeea;stroke-width:3.17500019;stroke-linecap:round;stroke-linejoin:round;stroke-miterlimit:8;stroke-dasharray:none;stroke-opacity:1" />
    </g>
    <path
       sodipodi:nodetypes="ccccccssssccssccc"
       inkscape:connector-curvature="0"
       id="path4592"
       transform="scale(0.26458333)"
       d="m 241.31836,455.27148 c -42.45547,0.3743 -65.19196,38.2805 -92.12695,47.55079 -26.96007,9.27889 -89.190575,33.26816 -130.619144,78.98242 l -4.28711,67.14258 58.765625,6.00976 68.117189,142.04102 c 4.54569,10.10154 12.21212,15.77408 25.50781,12.375 45.00128,-11.50473 80.48968,-111.26735 158.59375,-128.29102 82.1025,-17.89515 149.50242,-7.06756 194.43862,-19.27846 46.46698,-12.62691 71.231,-50.42192 97.49497,-47.39146 6.59583,0.76106 11.08621,2.19129 14.11719,3.90625 l 2.20117,17.0332 c 59.58093,-30.82356 62.79674,-88.24743 46.81641,-107.30664 -34.97896,-41.71827 -76.23014,-47.09047 -110.61133,-52.02344 -46.16957,-6.62434 -146.216,44.33465 -249.05468,21.08008 -16.67367,-14.83411 -28.40309,-36.78769 -70.5918,-41.38476 -3.01274,-0.32829 -5.93136,-0.47027 -8.76172,-0.44532 z"
       style="opacity:1;fill:#3250b0;fill-opacity:1;stroke:none;stroke-width:15.99999905;stroke-linecap:round;stroke-linejoin:round;stroke-miterlimit:8;stroke-dasharray:none;stroke-opacity:1" />
    <path
       sodipodi:nodetypes="scsccsccsscss"
       inkscape:connector-curvature="0"
       id="path4586"
       transform="scale(0.26458333)"
       d="m 151.07227,502.16211 c -12.20117,5.25588 -41.66469,18.10968 -67.914067,32.02539 -63.049532,42.76974 -127.660902,115.90706 -156.395688,217.54843 -41.861125,148.07218 -37.881095,334.58477 -35.511145,400.22247 10.370642,12.695 39.057544,25.0158 52.66116,0.9485 C -43.040794,957.84285 -29.543853,839.09129 12.212558,760.05511 55.226918,678.6379 67.488922,600.41184 107.85547,565.55664 l 28.57226,-1.60937 c 0,0 149.64393,-30.92303 178.21513,-30.54773 16.63613,0.21852 42.28239,-7.14252 46.26065,-28.04061 C 361.5046,502.20137 320,496.80469 320,496.80469 c 0,0 -38.80057,-14.7261 -77.99353,-13.26068 -40.82217,1.52635 -67.71992,8.61811 -90.9342,18.6181 z"
       style="opacity:1;fill:#292f75;fill-opacity:1;stroke:none;stroke-width:15.99999905;stroke-linecap:round;stroke-linejoin:round;stroke-miterlimit:8;stroke-dasharray:none;stroke-opacity:1" />
    <path
       sodipodi:nodetypes="csscssc"
       inkscape:connector-curvature="0"
       id="path4578"
       d="M 4.9136899,153.936 C 15.874999,141.84077 32.340432,135.49362 39.473616,133.03858 c 7.601653,-2.61628 13.939265,-13.85346 26.693177,-12.46373 11.16243,1.21631 14.265821,7.02499 18.677396,10.94985 27.209401,6.15277 53.869111,-7.75512 66.084811,-6.00243 9.09669,1.30518 19.82217,3.15164 29.07702,14.1896 4.22813,5.04275 3.37717,20.23635 -12.38695,28.39175"
       style="opacity:1;fill:none;fill-opacity:1;stroke:#1d2848;stroke-width:4.23333311;stroke-linecap:round;stroke-linejoin:round;stroke-miterlimit:8;stroke-dasharray:none;stroke-opacity:1" />
    <path
       sodipodi:nodetypes="cc"
       inkscape:connector-curvature="0"
       id="path4612"
       d="M -28.731475,300.60813 C -23.118814,257.31047 -29.934187,185.81587 3.2072344,158.82164"
       style="opacity:1;fill:none;fill-opacity:1;stroke:#1d2848;stroke-width:4.23333311;stroke-linecap:round;stroke-linejoin:round;stroke-miterlimit:8;stroke-dasharray:none;stroke-opacity:1" />
    <path
       inkscape:original-d="m 53.509339,207.68215 c 7.147157,-1.55301 36.157812,-2.15068 47.248181,3.05821 12.3353,5.79361 25.01406,28.33477 50.05498,25.31096 10.94032,-1.32109 17.95387,-3.40178 18.52083,-8.97693 2.83482,11.1503 -0.75595,30.04911 -21.16667,32.88393 -20.41071,2.83482 -23.90698,-9.07143 -40.91591,-10.96131 -17.008936,-1.88988 -30.656267,7.23467 -51.499263,5.29167 -22.300596,-2.07887 -34.206844,-11.1503 -32.127975,-27.78125"
       inkscape:path-effect="#path-effect4605"
       sodipodi:nodetypes="csscsssc"
       inkscape:connector-curvature="0"
       id="path4564"
       d="m 53.958785,209.75055 c 6.752937,-1.46735 35.311782,-2.06684 45.898894,2.90568 11.388581,5.34896 25.274521,28.62815 51.208571,25.49649 7.23525,-0.87369 13.383,-2.13744 16.98998,-4.92596 0.33108,9.9369 -4.37241,22.43942 -20.18076,24.63502 -19.68226,2.73364 -22.56119,-8.9874 -40.39097,-10.96849 -17.442291,-1.93803 -31.040954,7.19848 -51.536548,5.28786 -14.147447,-1.31883 -23.455037,-5.44967 -27.696759,-12.04028 -1.909578,-2.88506 -3.035264,-5.99685 -3.745798,-8.8777 -0.679333,-2.75435 -0.881883,-4.75574 -0.881883,-4.75574 0,0 -0.873375,1.81294 -1.241001,4.86965 -0.372531,3.09749 -0.07685,7.26542 2.308898,11.05487 5.248296,8.15459 16.11202,12.58911 30.863613,13.96426 21.190398,1.97538 34.886397,-7.13721 51.461978,-5.29548 16.18808,1.79867 20.30169,13.89013 41.44085,10.95413 21.8014,-3.02797 26.03835,-23.2636 22.92689,-35.50201 a 2.1166666,2.1166666 0 0 0 -4.15722,0.30739 c -0.39186,3.8534 -5.8866,5.78769 -16.66877,7.08968 -24.14131,2.91518 -35.6125,-18.88394 -48.90139,-25.12543 -11.593623,-5.44526 -41.056079,-4.84941 -48.597462,-3.21074 z"
       style="opacity:1;fill:#1d2848;fill-opacity:1;fill-rule:nonzero;stroke:none;stroke-width:4.23333311;stroke-linecap:round;stroke-linejoin:round;stroke-miterlimit:8;stroke-dasharray:none;stroke-opacity:1" />
    <path
       style="display:inline;opacity:1;fill:#ffffff;fill-opacity:1;stroke:none;stroke-width:3.17499995;stroke-linecap:round;stroke-linejoin:round;stroke-miterlimit:8;stroke-dasharray:none;stroke-opacity:1"
       d="m 39.593006,155.21167 c -1.41741,1.65364 0.330725,17.05618 1.511905,18.80431 1.984374,2.64583 15.256797,3.61358 20.457959,-0.14173 5.854706,-4.22717 12.803943,-9.21317 17.150669,-10.63058 0.330732,-5.05543 -4.25223,-13.37091 -6.189359,-15.63877"
       id="path4543"
       inkscape:connector-curvature="0"
       sodipodi:nodetypes="ccscc" />
    <path
       sodipodi:nodetypes="ccccc"
       inkscape:connector-curvature="0"
       id="path4545"
       transform="scale(0.26458333)"
       d="m 269.87305,558.85547 -68.77053,16.00215 c -9.22019,26.50884 16.05371,77.51065 35.44827,79.84606 11.73393,-7.06045 34.45475,-27.45564 50.94102,-34.21853 3.83916,-21.45767 -5.85271,-45.09399 -17.61876,-61.62968 z"
       style="opacity:1;fill:#f01d0a;fill-opacity:1;stroke:none;stroke-width:15.99999905;stroke-linecap:round;stroke-linejoin:round;stroke-miterlimit:8;stroke-dasharray:none;stroke-opacity:1" />
    <path
       inkscape:connector-curvature="0"
       id="path4498"
       d="m 67.374256,148.92782 c 3.307291,2.55134 5.669642,12.00074 3.307291,17.95387 -1.13393,1.32291 -2.267857,1.32291 -3.968749,1.32291 -5.197174,-1.79539 -10.394347,-10.96131 -8.12649,-15.96949 4.724702,-1.51191 8.787948,-3.30729 8.787948,-3.30729 z"
       style="display:inline;opacity:1;fill:#000000;fill-opacity:1;stroke:none;stroke-width:4.23333311;stroke-linecap:round;stroke-linejoin:round;stroke-miterlimit:8;stroke-dasharray:none;stroke-opacity:1" />
    <ellipse
       transform="rotate(-10.831651)"
       ry="4.1092691"
       rx="2.80633"
       cy="164.60539"
       cx="38.653275"
       id="path4550"
       style="opacity:1;fill:#ffffff;fill-opacity:1;stroke:none;stroke-width:4.23333311;stroke-linecap:round;stroke-linejoin:round;stroke-miterlimit:8;stroke-dasharray:none;stroke-opacity:1" />
    <path
       sodipodi:nodetypes="ccscc"
       inkscape:connector-curvature="0"
       id="path4496"
       d="m 39.593006,155.21167 c -1.41741,1.65364 0.330725,17.05618 1.511905,18.80431 1.984374,2.64583 15.256797,3.61358 20.457959,-0.14173 5.854706,-4.22717 12.803943,-9.21317 17.150669,-10.63058 0.330732,-5.05543 -4.25223,-13.37091 -6.189359,-15.63877"
       style="display:inline;opacity:1;fill:none;fill-opacity:1;stroke:#1d2848;stroke-width:3.17499995;stroke-linecap:round;stroke-linejoin:round;stroke-miterlimit:8;stroke-dasharray:none;stroke-opacity:1" />
    <path
       sodipodi:nodetypes="csc"
       inkscape:original-d="m 34.263647,158.29185 c 5.86314,-3.94836 11.062656,-6.78811 20.1257,-6.01831 8.033662,0.68237 20.10335,-5.39297 22.446707,-8.65267"
       inkscape:path-effect="#path-effect4500"
       inkscape:connector-curvature="0"
       id="path4494"
       d="m 39.44421,152.75916 c -3.50191,1.69637 -5.180563,5.53269 -5.180563,5.53269 0,0 4.11158,-0.33114 7.016532,-1.7219 3.53012,-1.70075 7.445766,-2.65483 12.930167,-2.189 5.007758,0.42535 11.156652,-1.46445 15.93198,-3.71229 1.864146,-0.87453 3.440963,-2.17941 4.606672,-3.4987 0.824248,-0.91816 1.364485,-1.71891 1.707677,-2.44956 0.317093,-0.67509 0.379379,-1.09953 0.379379,-1.09953 0,0 -0.365869,0.23046 -0.98565,0.49198 -0.621186,0.26211 -1.51256,0.5092 -2.569717,0.88754 -1.416069,0.4672 -3.345742,1.08791 -4.939896,1.84108 -4.443162,2.09149 -9.798449,3.6622 -13.772444,3.32466 -6.305644,-0.53559 -10.910879,0.56316 -15.124137,2.59303 z"
       style="opacity:1;fill:#1d2848;fill-opacity:1;fill-rule:nonzero;stroke:none;stroke-width:5.29166651;stroke-linecap:round;stroke-linejoin:round;stroke-miterlimit:8;stroke-dasharray:none;stroke-opacity:1" />
    <path
       sodipodi:nodetypes="sssss"
       inkscape:connector-curvature="0"
       id="path4527"
       d="m 19.577493,198.04345 c 1.876699,3.19547 -0.668177,8.4858 -2.806331,9.88896 -2.138158,1.40317 -4.276312,-0.26726 -4.409947,-2.53905 -0.133634,-2.27179 0.190231,-5.97699 2.472244,-7.61719 2.138154,-1.53679 4.121933,-0.79197 4.744034,0.26728 z"
       style="opacity:1;fill:#1d2848;fill-opacity:1;stroke:none;stroke-width:3.17499995;stroke-linecap:round;stroke-linejoin:round;stroke-miterlimit:8;stroke-dasharray:none;stroke-opacity:1" />
    <path
       sodipodi:nodetypes="ssssss"
       inkscape:connector-curvature="0"
       id="path4529"
       d="m 126.55212,148.73222 c 2.26157,1.67998 5.32678,1.2182 7.14947,1.80407 1.87088,0.60135 3.80858,3.0736 7.61717,2.20498 3.80859,-0.86863 1.42977,-6.95514 -2.80632,-8.21854 -3.45776,-1.03126 -9.28763,-0.46773 -11.62623,0.60135 -1.87204,0.85579 -1.05571,3.07209 -0.33409,3.60814 z"
       style="opacity:1;fill:#1d2848;fill-opacity:1;stroke:none;stroke-width:3.17499995;stroke-linecap:round;stroke-linejoin:round;stroke-miterlimit:8;stroke-dasharray:none;stroke-opacity:1" />
    <path
       inkscape:original-d="m 114.25772,146.05952 c 6.34765,-1.06907 10.61239,-10.54889 20.84703,-11.62622 11.42577,-1.20271 20.37929,14.09847 22.18336,18.04069"
       inkscape:path-effect="#path-effect4533"
       sodipodi:nodetypes="csc"
       inkscape:connector-curvature="0"
       id="path4531"
       d="m 118.32258,141.61447 c -1.08139,0.80807 -1.99195,2.12405 -2.65872,2.93678 -0.71749,0.87457 -1.40614,1.50827 -1.40614,1.50827 0,0 0.83314,0.43033 2.22655,0.42541 1.42785,-0.005 3.16597,-0.47466 4.46245,-1.55281 4.29415,-3.39653 7.96947,-7.72071 14.37944,-8.39544 6.87133,-0.7233 13.12316,5.87931 16.92628,11.47016 0.87223,1.28878 2.17938,2.37153 3.18963,3.14474 1.02978,0.78814 1.84604,1.32241 1.84604,1.32241 0,0 0.15254,-0.9631 0.0109,-2.33362 -0.14336,-1.38722 -0.5825,-3.09856 -1.54906,-4.51268 -4.09714,-6.02307 -11.55116,-14.27834 -20.86661,-13.29777 -7.90798,0.83242 -12.70872,6.23771 -16.56076,9.28455 z"
       style="opacity:1;fill:#1d2848;fill-opacity:1;fill-rule:nonzero;stroke:none;stroke-width:3.17499995;stroke-linecap:round;stroke-linejoin:round;stroke-miterlimit:8;stroke-dasharray:none;stroke-opacity:1" />
    <path
       inkscape:connector-curvature="0"
       id="path4537"
       d="m 1.8708867,157.75257 c -15.7689017,2.67269 -70.4255207,33.54232 -73.2318497,47.44034 10.958049,-5.61266 60.937452,-21.24793 76.4390839,-18.57524"
       style="opacity:1;fill:#3a3c3f;fill-opacity:1;stroke:#292929;stroke-width:4.23333311;stroke-linecap:round;stroke-linejoin:round;stroke-miterlimit:8;stroke-dasharray:none;stroke-opacity:1" />
    <path
       sodipodi:nodetypes="cccc"
       style="opacity:1;fill:#3250b0;fill-opacity:1;stroke:none;stroke-width:4.23333311;stroke-linecap:round;stroke-linejoin:round;stroke-miterlimit:8;stroke-dasharray:none;stroke-opacity:1"
       d="M 31.933622,146.15877 C 26.855501,146.55968 4.0090428,150.93719 0,152.67445 c -3.8754081,11.22532 -7.7508163,36.74955 -7.3499119,39.55589 4.8108514,0.66817 19.7779449,-3.47451 23.3860839,-5.21176"
       id="path4539"
       inkscape:connector-curvature="0" />
    <path
       sodipodi:nodetypes="cccc"
       inkscape:original-d="M 31.612152,146.18308 C 23.563592,146.37626 3.9917839,150.94064 0,152.67445 c -3.8754081,11.22532 -7.7508163,36.74955 -7.3499119,39.55589 4.8108514,0.66817 19.5106759,-2.40543 24.3215279,-4.27631"
       inkscape:path-effect="#path-effect4541"
       inkscape:connector-curvature="0"
       id="path4535"
       d="m 25.154655,148.97308 c 1.643377,-0.24429 3.247654,-0.99828 4.421498,-1.618 1.192283,-0.62946 2.035999,-1.172 2.035999,-1.172 0,0 -0.859542,-0.51678 -2.212754,-0.93653 -1.369038,-0.42465 -3.152583,-0.72178 -4.874526,-0.4597 -9.2898,1.39757 -21.8454295,4.41609 -25.36812708,5.94616 a 2.1166666,2.1166666 0 0 0 -1.15753102,1.25069 c -3.8980263,11.29084 -7.9109454,37.28099 -7.4445189,40.54598 a 2.1166666,2.1166666 0 0 0 1.8042084,1.7972 c 3.8535259,0.53521 12.1982477,-0.90384 18.5191816,-2.41052 1.699151,-0.40051 3.258137,-1.336 4.383813,-2.25016 1.110369,-0.90173 1.709718,-1.71217 1.709718,-1.71217 0,0 -0.992982,-0.17345 -2.336962,-0.30848 -1.319894,-0.13261 -3.104238,-0.24098 -4.7381398,0.15285 -5.1466407,1.22677 -11.4791996,2.2984 -15.1051489,2.40087 0.4912565,-6.16871 3.6146191,-25.75384 6.8994917,-35.90607 3.8600161,-1.33998 15.092709,-4.06076 23.463798,-5.32012 z"
       style="opacity:1;fill:#1d2848;fill-opacity:1;fill-rule:nonzero;stroke:none;stroke-width:4.23333311;stroke-linecap:round;stroke-linejoin:round;stroke-miterlimit:8;stroke-dasharray:none;stroke-opacity:1" />
    <path
       style="opacity:1;fill:#3250b0;fill-opacity:1;fill-rule:nonzero;stroke:none;stroke-width:1.11918747;stroke-linecap:round;stroke-linejoin:round;stroke-miterlimit:8;stroke-dasharray:none;stroke-opacity:1"
       d="m 24.75744,154.31398 c 5.38616,-2.64584 12.945685,-17.10343 27.497768,-19.84375 14.552083,-2.74033 28.631697,5.85863 32.222468,6.80357"
       id="path4582"
       inkscape:connector-curvature="0"
       sodipodi:nodetypes="csc" />
    <path
       sodipodi:nodetypes="csc"
       inkscape:original-d="m 24.75744,154.31398 c 5.38616,-2.64584 12.945685,-17.10343 27.497768,-19.84375 14.552083,-2.74033 28.631697,5.85863 32.222468,6.80357"
       inkscape:path-effect="#path-effect4554"
       inkscape:connector-curvature="0"
       id="path4552"
       d="m 30.909983,145.65487 c -1.818921,1.85973 -3.257349,4.62853 -4.147557,6.0248 -1.020375,1.60043 -2.004986,2.63431 -2.004986,2.63431 0,0 1.433212,-0.0628 3.391361,-1.05414 2.106836,-1.06661 4.059526,-2.74718 5.834714,-4.69872 4.694258,-4.96445 10.534581,-10.48173 18.663093,-12.01242 8.859531,-1.66836 17.624455,1.14976 23.811022,3.68221 1.54265,0.63103 3.25473,0.95176 4.713883,1.09081 1.913871,0.17236 3.306163,-0.0479 3.306163,-0.0479 0,0 -0.847725,-0.98775 -2.300805,-2.25025 -1.077798,-0.96723 -2.491186,-2.04147 -4.116766,-2.70735 -6.430145,-2.63216 -16.161397,-5.81413 -26.196296,-3.92444 -9.488891,1.78687 -16.141612,8.17391 -20.953826,13.26311 z"
       style="opacity:1;fill:#1d2848;fill-opacity:1;fill-rule:nonzero;stroke:none;stroke-width:4.23333311;stroke-linecap:round;stroke-linejoin:round;stroke-miterlimit:8;stroke-dasharray:none;stroke-opacity:1" />
    <path
       inkscape:original-d="m 37.350916,210.87238 c 1.202713,2.6727 3.230738,4.1734 6.748556,3.27406 11.906588,-3.04396 21.420928,-28.90103 41.961315,-33.94323 28.526523,-7.00262 39.029923,-1.71973 51.067473,-4.3451 15.3182,-3.34087 19.22441,-14.0965 26.17342,-13.29469 6.94901,0.80181 5.07812,4.40994 5.07812,4.40994"
       inkscape:path-effect="#path-effect4562"
       sodipodi:nodetypes="cssssc"
       inkscape:connector-curvature="0"
       id="path4556"
       d="m 47.121794,210.38579 c -1.206158,0.81043 -2.298323,1.5327 -3.467239,2.02034 -1.268757,0.4802 -2.31236,0.79016 -3.302875,0.53357 -1.957168,-0.36296 -3.000764,-2.06732 -3.000764,-2.06732 0,0 -0.266996,1.99217 2.011463,3.88577 1.307972,0.98534 3.22007,1.47676 5.18201,1.1286 1.788176,-0.26876 3.499151,-0.98307 4.971777,-2.00981 10.752411,-7.37445 19.713935,-27.36267 37.049234,-31.61809 28.34843,-6.9589 38.56232,-1.61702 51.0139,-4.33269 15.8201,-3.45033 19.84665,-13.91 25.47976,-13.26002 2.90355,0.33502 3.42228,1.18904 3.42228,1.18904 0,0 0.0405,0.10306 0.0194,0.14384 l 3.75816,1.94868 c 0.49419,-0.95308 0.484,-2.13335 0.43756,-2.53742 -0.27484,-2.39114 -2.41178,-4.40261 -7.15214,-4.94958 -8.22134,-0.94861 -12.03416,10.09433 -26.86708,13.32936 -11.62352,2.53507 -22.41643,-2.68883 -51.121045,4.35751 -18.799987,4.61497 -28.911528,25.70706 -38.434381,32.23822 z"
       style="opacity:1;fill:#1d2848;fill-opacity:1;fill-rule:nonzero;stroke:none;stroke-width:4.23333311;stroke-linecap:round;stroke-linejoin:round;stroke-miterlimit:8;stroke-dasharray:none;stroke-opacity:1" />
    <path
       style="opacity:1;fill:#3250b0;fill-opacity:1;fill-rule:nonzero;stroke:none;stroke-width:1.12006938;stroke-linecap:round;stroke-linejoin:round;stroke-miterlimit:8;stroke-dasharray:none;stroke-opacity:1"
       d="m 139.11379,128.75382 c 7.21627,-2.67269 14.15748,-6.45148 20.17885,-6.01356 7.34991,0.53454 13.96856,3.83874 16.30344,8.41899 2.85658,5.60364 1.06907,17.63979 -2.80633,23.11881"
       id="path4588"
       inkscape:connector-curvature="0"
       sodipodi:nodetypes="cssc" />
    <path
       inkscape:original-d="m 139.11379,128.75382 c 7.21627,-2.67269 14.15748,-6.45148 20.17885,-6.01356 7.34991,0.53454 13.96856,3.83874 16.30344,8.41899 2.85658,5.60364 1.06907,17.63979 -2.80633,23.11881"
       inkscape:path-effect="#path-effect4560"
       sodipodi:nodetypes="cssc"
       inkscape:connector-curvature="0"
       id="path4558"
       d="m 142.6026,125.10153 c -2.08739,0.8552 -3.48881,3.65229 -3.48881,3.65229 0,0 2.91138,1.15997 5.09438,0.26476 5.67744,-2.32714 10.51222,-4.48859 14.93094,-4.16723 6.87943,0.50032 12.71582,3.62959 14.57119,7.26922 1.35752,2.66298 1.51719,7.63178 0.5616,12.49047 -0.48449,2.33773 -0.6287,4.70201 -0.89147,6.52862 -0.26131,1.81643 -0.59068,3.1384 -0.59068,3.1384 0,0 1.18408,-0.67652 2.50502,-2.24908 1.36424,-1.62413 2.63293,-3.93851 3.13089,-6.601 1.04523,-5.31447 1.04578,-11.32716 -0.9438,-15.23004 -2.81439,-5.52088 -10.2153,-9.00001 -18.03569,-9.56877 -5.21547,-0.37931 -11.19228,2.15595 -16.84357,4.47236 z"
       style="opacity:1;fill:#1d2848;fill-opacity:1;fill-rule:nonzero;stroke:none;stroke-width:4.23333311;stroke-linecap:round;stroke-linejoin:round;stroke-miterlimit:8;stroke-dasharray:none;stroke-opacity:1" />
    <path
       clip-path="url(#clipPath4723)"
       transform="matrix(0.26458334,0,0,0.26458334,-73.705353,49.803562)"
       sodipodi:nodetypes="scccccccccssscsccscs"
       inkscape:connector-curvature="0"
       id="path4657"
       d="m 1018.0039,745.38672 c 36.3655,23.23351 135.8292,46.48843 194.959,4.04101 -52.528,0 -68.6916,-26.26336 -109.0977,-47.47656 118.0095,-57.78535 217.7846,78.22092 343.4532,31.31445 -58.589,-17.17258 -100.5474,-106.68757 -164.6563,-132.33007 97.6418,-115.54965 370.0331,-24.84517 437.3965,-78.79297 -48.4873,0 -193.9492,-89.90233 -301.0254,-79.80078 C 1600.6736,347.67971 1599.1964,207.83281 1718.0391,83.736328 1609.6533,99.082964 1529.029,240.9143 1379.6367,271.625 c 53.5381,-37.37563 38.2284,-106.39023 58.6972,-167.56337 -60.639,80.34408 -86.822,87.9374 -169.7828,124.94539 -32.9665,14.70604 -104.8673,30.30275 -139.9573,43.61407 -38.0731,14.44297 -103.519,28.80363 -145.94536,59.61329 -42.42641,30.80965 -40.21367,73.93173 -92.64846,102.08203 -43.07191,-5.19768 -284.64341,10.32591 -305.71482,27.46875 -21.07143,17.14287 -46.786,171.78709 -7.85743,191.78711 38.92857,19.99997 245.35857,94.28517 274.28711,86.78515 28.92858,-7.49998 36.07032,-17.50113 36.07032,-21.42969 0,-3.92859 3.21484,-31.32617 3.21484,-31.32617 43.43754,-4.54571 91.63844,34.55165 128.0039,57.78516 z"
       style="opacity:1;fill:url(#radialGradient4717);fill-opacity:1;stroke:none;stroke-width:12;stroke-linecap:round;stroke-linejoin:round;stroke-miterlimit:8;stroke-dasharray:none;stroke-opacity:1" />
    <path
       sodipodi:nodetypes="csscssscsssc"
       inkscape:connector-curvature="0"
       clip-path="url(#clipPath4719)"
       id="path4641"
       transform="matrix(0.26458334,0,0,0.26458334,-73.705353,49.803562)"
       d="m 1434.1855,269.60547 c -14.142,23.23351 -77.853,96.86341 -137.3808,112.12695 -78.7919,20.20305 -162.6341,-35.35575 -307.08595,1.00977 -55.36184,13.93727 -62.34314,51.57422 -99.71877,51.57422 -49.00714,-0.72601 -232.03933,-1.13204 -271.04881,27.43359 -50.34525,36.86653 -154.58736,128.32101 -52.98828,182.55273 38.73787,20.67757 75.4886,37.74636 193.44141,40.47461 49.87993,1.15374 93.15008,0.87377 127.59568,-5.49609 40.15128,-1.39075 108.89844,-48.61281 144.13482,-63.19336 58.5888,-24.24367 121.019,-100.03347 162.6347,-122.22851 45.4569,-24.24371 100.0049,-24.24426 158.5938,-64.6504 40.9078,-28.21228 90.9137,-107.07556 81.8222,-159.60351 z"
       style="opacity:1;fill:url(#radialGradient4719);fill-opacity:1;stroke:none;stroke-width:12;stroke-linecap:round;stroke-linejoin:round;stroke-miterlimit:8;stroke-dasharray:none;stroke-opacity:1" />
    <path
       clip-path="url(#clipPath4832)"
       sodipodi:nodetypes="ccc"
       inkscape:connector-curvature="0"
       id="path4813"
       d="m 149.48958,170.09444 c 3.40179,2.83482 1.32292,11.62276 0.37798,12.5677 -2.26786,-5.66964 -6.4256,-9.54389 -6.4256,-9.54389"
       style="opacity:1;fill:#ffffff;fill-opacity:1;stroke:#bcdeea;stroke-width:3.17499995;stroke-linecap:round;stroke-linejoin:round;stroke-miterlimit:8;stroke-dasharray:none;stroke-opacity:1" />
    <path
       clip-path="url(#clipPath4828)"
       style="opacity:1;fill:#ffffff;fill-opacity:1;stroke:#bcdeea;stroke-width:3.17499995;stroke-linecap:round;stroke-linejoin:round;stroke-miterlimit:8;stroke-dasharray:none;stroke-opacity:1"
       d="m 134.93751,171.51186 c 3.40179,2.83482 1.32292,11.62276 0.37798,12.5677 -2.26786,-5.66964 -6.4256,-9.54389 -6.4256,-9.54389"
       id="path4815"
       inkscape:connector-curvature="0"
       sodipodi:nodetypes="ccc" />
    <path
       clip-path="url(#clipPath4824)"
       sodipodi:nodetypes="ccc"
       inkscape:connector-curvature="0"
       id="path4817"
       d="m 121.61385,170.56692 c 3.40179,2.83482 1.32292,11.62276 0.37798,12.5677 -2.26786,-5.66964 -6.4256,-9.54389 -6.4256,-9.54389"
       style="opacity:1;fill:#ffffff;fill-opacity:1;stroke:#bcdeea;stroke-width:3.17499995;stroke-linecap:round;stroke-linejoin:round;stroke-miterlimit:8;stroke-dasharray:none;stroke-opacity:1" />
    <path
       clip-path="url(#clipPath4857)"
       style="opacity:1;fill:#ffffff;fill-opacity:1;stroke:#bcdeea;stroke-width:3.17500019;stroke-linecap:round;stroke-linejoin:round;stroke-miterlimit:8;stroke-dasharray:none;stroke-opacity:1"
       d="m 142.35047,236.01387 c 2.07746,-1.7338 4.89652,-7.3273 5.46974,-10.3588 1.79892,3.93884 2.19026,9.39194 0.97504,11.32413"
       id="path4838"
       inkscape:connector-curvature="0"
       sodipodi:nodetypes="ccc" />
    <path
       clip-path="url(#clipPath4853)"
       sodipodi:nodetypes="ccc"
       inkscape:connector-curvature="0"
       id="path4840"
       d="m 129.92244,237.48385 c 2.07746,-1.7338 4.89652,-7.3273 5.46974,-10.3588 1.79892,3.93884 2.19026,9.39194 0.97504,11.32413"
       style="opacity:1;fill:#ffffff;fill-opacity:1;stroke:#bcdeea;stroke-width:3.17500019;stroke-linecap:round;stroke-linejoin:round;stroke-miterlimit:8;stroke-dasharray:none;stroke-opacity:1" />
  </g>
</svg>
