<?xml version="1.0" encoding="UTF-8" standalone="no"?>
<svg
   xmlns:dc="http://purl.org/dc/elements/1.1/"
   xmlns:cc="http://creativecommons.org/ns#"
   xmlns:rdf="http://www.w3.org/1999/02/22-rdf-syntax-ns#"
   xmlns:svg="http://www.w3.org/2000/svg"
   xmlns="http://www.w3.org/2000/svg"
   xmlns:xlink="http://www.w3.org/1999/xlink"
   xmlns:sodipodi="http://sodipodi.sourceforge.net/DTD/sodipodi-0.dtd"
   xmlns:inkscape="http://www.inkscape.org/namespaces/inkscape"
   width="512"
   height="512"
   viewBox="0 0 512 512"
   version="1.1"
   id="svg4575"
   inkscape:version="0.92+devel (unknown)"
   sodipodi:docname="rain.svg"
   inkscape:export-filename="/home/melano/Pictures/Dragons/Glax/stickers/weather/rain-10-thunder.png"
   inkscape:export-xdpi="96"
   inkscape:export-ydpi="96">
  <defs
     id="defs4569" />
  <sodipodi:namedview
     id="base"
     pagecolor="#ffffff"
     bordercolor="#666666"
     borderopacity="1.0"
     inkscape:pageopacity="0.0"
     inkscape:pageshadow="2"
     inkscape:zoom="1.5744174"
     inkscape:cx="59.414434"
     inkscape:cy="265.58466"
     inkscape:document-units="px"
     inkscape:current-layer="layer6"
     showgrid="false"
     units="px"
     inkscape:pagecheckerboard="true"
     inkscape:window-width="2408"
     inkscape:window-height="1411"
     inkscape:window-x="30"
     inkscape:window-y="0"
     inkscape:window-maximized="1"
     inkscape:document-rotation="0"
     borderlayer="true"
     inkscape:snap-global="false"
     showguides="false"
     inkscape:object-paths="true" />
  <metadata
     id="metadata4572">
    <rdf:RDF>
      <cc:Work
         rdf:about="">
        <dc:format>image/svg+xml</dc:format>
        <dc:type
           rdf:resource="http://purl.org/dc/dcmitype/StillImage" />
        <dc:title />
      </cc:Work>
    </rdf:RDF>
  </metadata>
  <g
     inkscape:label="ref"
     inkscape:groupmode="layer"
     id="layer1"
     transform="translate(0,-161.53332)"
     style="display:none">
    <image
       sodipodi:absref="/home/melano/Pictures/Dragons/Glax/sketches/rain.jpeg"
       xlink:href="../sketches/rain.jpeg"
       y="138.5452"
       x="55.675949"
       width="400.6481"
       height="553.8797"
       preserveAspectRatio="none"
       id="image943"
       style="opacity:1" />
  </g>
  <g
     inkscape:groupmode="layer"
     id="layer2"
     inkscape:label="durg"
     style="opacity:1">
    <g
       inkscape:groupmode="layer"
       id="layer9"
       inkscape:label="wing b"
       style="display:inline">
      <path
         style="fill:#292f75;stroke:#1d2848;stroke-width:2.5;stroke-linecap:round;stroke-linejoin:round;stroke-dashoffset:23.10000038"
         d="m 349.39234,304.82441 34.62144,56.08855 -33.86804,10.98415 z"
         id="path1582"
         inkscape:connector-curvature="0" />
      <path
         style="fill:#3250b0;stroke:#1d2848;stroke-width:2.5;stroke-linecap:round;stroke-linejoin:round;stroke-dashoffset:23.10000038"
         d="m 356.89536,360.23651 c 0.49654,-13.01661 -0.30446,-42.41544 -6.03332,-53.88819 -7.17095,-9.81008 -17.77366,-14.48622 -17.77366,-14.48622 l -4.32706,56.72983 z"
         id="path1580"
         inkscape:connector-curvature="0" />
      <path
         style="fill:#3250b0;stroke:#1d2848;stroke-width:2.5;stroke-linecap:round;stroke-linejoin:round;stroke-dashoffset:23.10000038"
         d="M 386.86527,386.78843 C 385.55485,366.55772 360.5156,308.33 339.38673,289.80145 c -5.28157,-5.41749 -13.31011,-10.94203 -15.52922,-10.49894 -2.2191,0.44309 5.44528,15.44522 13.41003,17.53615 7.96475,2.09092 31.7426,40.13405 45.97325,88.26559"
         id="path1578"
         inkscape:connector-curvature="0"
         sodipodi:nodetypes="ccscc" />
    </g>
    <g
       inkscape:groupmode="layer"
       id="layer12"
       inkscape:label="tail b"
       style="display:inline">
      <path
         sodipodi:nodetypes="cscsc"
         inkscape:connector-curvature="0"
         d="m 239.13398,447.45534 c 4.48492,-7.50163 34.91647,-5.35164 56.60157,-4.85164 21.68511,0.5 82.72269,3.37861 104.80689,8.86944 -28.16947,-25.40127 -57.47242,-23.58821 -89.08952,-25.25967 -25.72016,-1.35971 -56.49802,-3.54946 -76.16438,-0.14986 -14.52507,3.97417 -11.97499,17.45073 -9.40794,19.70958 2.56705,2.25886 10.24437,4.8906 13.25338,1.68215 z"
         style="display:inline;opacity:1;fill:#3250b0;stroke:none;stroke-width:2.5;stroke-linecap:round;stroke-linejoin:round;stroke-dashoffset:23.10000038"
         id="path955" />
      <path
         id="path951"
         style="display:inline;opacity:1;fill:#c4d9f5;stroke:none;stroke-width:2.5;stroke-linecap:round;stroke-linejoin:round;stroke-dashoffset:23.10000038"
         d="m 239.13398,447.45534 c 4.48492,-7.50163 34.89322,-3.21769 56.57832,-2.71769 18.4056,0.42438 65.18416,0.42838 92.40863,4.42273 4.85085,0.71171 -0.34571,-0.14257 -0.34571,-0.14257 -11.29394,-7.37915 -56.89916,-9.02216 -80.73746,-10.04119 -22.11751,-0.94547 -72.14541,-9.18368 -74.68777,4.55032 0.44143,4.99089 5.53593,5.16462 6.78399,3.9284 z"
         inkscape:connector-curvature="0"
         sodipodi:nodetypes="csccscc" />
      <path
         id="path946"
         style="display:inline;opacity:1;fill:#292f75;stroke:none;stroke-width:2.5;stroke-linecap:round;stroke-linejoin:round;stroke-dashoffset:23.10000038"
         d="m 226.02572,439.39493 c 7.03506,-14.82846 58.90259,-11.03329 84.51435,-9.35158 16.60456,1.09029 35.33773,2.1027 53.58168,7.28899 12.92163,3.67319 22.39516,6.03119 23.3508,3.87426 0,0 3.85764,2.7096 -0.79876,-0.11744 -23.91391,-14.51886 -48.34477,-16.566 -74.8089,-17.96504 -25.72016,-1.35971 -57.02119,-2.60742 -76.68755,0.79218 -5.48023,0.12233 -15.18381,6.00651 -17.39352,9.45366 -2.2097,3.44714 3.84553,10.83765 8.2419,6.02497 z"
         inkscape:connector-curvature="0"
         sodipodi:nodetypes="cscccscsc" />
      <path
         id="path940"
         style="display:inline;opacity:1;fill:none;stroke:#1d2848;stroke-width:2.5;stroke-linecap:round;stroke-linejoin:round;stroke-dashoffset:23.10000038"
         d="m 235.17734,423.9163 c 19.66636,-3.3996 50.99903,-1.71142 76.71919,-0.35171 31.6171,1.67146 60.47644,2.50728 88.64591,27.90855 -22.0842,-5.49083 -83.14503,-6.23549 -104.83014,-6.73549 -21.6851,-0.5 -52.0934,-4.78394 -56.57832,2.71769"
         inkscape:connector-curvature="0"
         sodipodi:nodetypes="cscsc" />
      <path
         style="display:inline;opacity:1;fill:none;stroke:#1d2848;stroke-width:2.5;stroke-linecap:round;stroke-linejoin:round;stroke-dashoffset:23.10000038"
         d="m 232.34999,443.52694 c 2.63236,-13.78223 52.70934,-7.57094 74.76759,-5.69697 23.81537,2.02325 69.3637,3.80869 80.65764,11.18784"
         id="path932"
         inkscape:connector-curvature="0"
         sodipodi:nodetypes="csc" />
    </g>
    <g
       inkscape:groupmode="layer"
       id="layer11"
       inkscape:label="leg b"
       style="display:inline">
      <path
         style="fill:#3250b0;stroke:#1d2848;stroke-width:2.5;stroke-linecap:round;stroke-linejoin:round;stroke-dashoffset:23.10000038"
         d="m 346.71006,442.97893 c -13.00197,-29.03589 -40.97021,-63.93427 -60.20608,-58.02142 -21.65552,6.65662 -8.36223,45.23423 2.10596,60.08937 -21.35532,-12.79522 -43.00271,-9.87876 -47.05806,-1.73957 -3.2913,6.60572 6.37908,10.64533 11.63281,10.97506 6.24974,0.39224 11.78694,0.0949 17.16695,1.15336 6.10916,1.20192 20.17005,8.06287 30.72527,3.54087"
         id="path1570"
         inkscape:connector-curvature="0"
         sodipodi:nodetypes="cscsssc" />
    </g>
    <g
       inkscape:groupmode="layer"
       id="layer10"
       inkscape:label="arm b"
       style="display:inline">
      <path
         sodipodi:nodetypes="csssssc"
         inkscape:connector-curvature="0"
         id="path1576"
         d="m 320.58265,373.57951 c -8.59368,-4.2807 -39.63577,-4.12143 -47.49583,-2.25404 -3.19016,0.75792 -10.74995,1.52927 -17.0525,7.22117 -4.65273,4.20194 -9.50425,11.18784 -7.25297,19.22684 1.45647,5.20083 10.0806,7.65741 15.96106,1.68976 5.88045,-5.96765 6.07311,-10.45589 9.34413,-12.30351 14.4137,-8.14153 36.53598,2.96428 45.03483,3.37444"
         style="fill:#3250b0;stroke:none;stroke-width:2.5;stroke-linecap:round;stroke-linejoin:round;stroke-dashoffset:23.10000038" />
      <path
         style="fill:#c4d9f5;stroke:none;stroke-width:2.5;stroke-linecap:round;stroke-linejoin:round;stroke-dashoffset:23.10000038"
         d="m 248.59328,392.05207 c 0.92794,4.52259 3.98476,6.35501 6.76841,6.30952 9.13528,-0.14927 13.33333,-10.50801 16.82998,-9.67038 -5.04239,7.73168 -8.42833,15.24733 -15.30042,14.35746 -6.87209,-0.88987 -9.49744,-3.45137 -8.29797,-10.9966 z"
         id="path1574"
         inkscape:connector-curvature="0"
         sodipodi:nodetypes="cscsc" />
      <path
         style="fill:none;stroke:#1d2848;stroke-width:2.5;stroke-linecap:round;stroke-linejoin:round;stroke-dashoffset:23.10000038"
         d="m 320.58265,373.57951 c -8.59368,-4.2807 -39.63577,-4.12143 -47.49583,-2.25404 -3.19016,0.75792 -10.74995,1.52927 -17.0525,7.22117 -4.65273,4.20194 -9.50425,11.18784 -7.25297,19.22684 1.45647,5.20083 10.0806,7.65741 15.96106,1.68976 5.88045,-5.96765 6.07311,-10.45589 9.34413,-12.30351 14.4137,-8.14153 36.53598,2.96428 45.03483,3.37444"
         id="path1572"
         inkscape:connector-curvature="0"
         sodipodi:nodetypes="csssssc" />
    </g>
    <g
       inkscape:groupmode="layer"
       id="layer13"
       inkscape:label="body"
       style="display:inline">
      <path
         style="fill:#3250b0;stroke:#1d2848;stroke-width:2.5;stroke-linecap:round;stroke-linejoin:round;stroke-dashoffset:23.10000038"
         d="m 301.78205,467.32316 c 15.40499,12.43687 60.55171,0.82137 64.57647,-14.8101 -7.12604,-20.02003 -20.3443,-43.77473 -20.3443,-43.77473 l -42.03405,2.48398 z"
         id="path1584"
         inkscape:connector-curvature="0"
         sodipodi:nodetypes="ccccc" />
      <path
         style="fill:#3250b0;stroke:none;stroke-width:2.5;stroke-linecap:round;stroke-linejoin:round;stroke-dashoffset:23.10000038"
         d="m 317.19405,435.2942 -20.99423,-111.06465 -31.34783,-50.40723 25.24187,-29.80036 c 0,0 29.43967,21.05592 44.55508,53.10279 15.11542,32.04688 18.48532,41.81298 20.57041,59.98722 2.08508,18.17424 1.86697,84.72937 1.86697,84.72937 z"
         id="path908"
         inkscape:connector-curvature="0" />
      <path
         style="fill:#292f75;stroke:none;stroke-width:2.5;stroke-linecap:round;stroke-linejoin:round;stroke-dashoffset:23.10000038"
         d="m 290.8813,250.83099 c 13.78861,4.23771 27.40641,25.32869 35.40641,38.47963 8,13.15094 17.51254,36.58324 19.83835,40.8543 2.3258,4.27105 3.74972,104.86581 3.74972,104.86581 2.87225,2.77594 6.71936,6.40506 6.71936,12.22495 10.59516,-9.35405 14.92377,-15.51607 14.92377,-15.51607 2.06247,-52.49885 -10.53153,-88.45185 -18.7302,-104.61188 -3.96734,-27.42974 -42.20331,-81.1644 -63.82088,-85.68884 -6.12584,2.87398 1.91347,9.3921 1.91347,9.3921 z"
         id="path905"
         inkscape:connector-curvature="0"
         sodipodi:nodetypes="csscccccc" />
      <path
         style="fill:none;stroke:#1d2848;stroke-width:2.5;stroke-linecap:round;stroke-linejoin:round;stroke-dashoffset:23.10000038"
         d="m 291.05571,243.12922 c 26.89243,7.45293 58.36475,65.22248 61.6339,84.16014 12.26345,15.40168 21.94985,81.8229 18.65886,105.17115"
         id="path899"
         inkscape:connector-curvature="0"
         sodipodi:nodetypes="ccc" />
      <path
         id="path903"
         style="fill:#c4d9f5;stroke:#1d2848;stroke-width:2.5;stroke-linecap:round;stroke-linejoin:round;stroke-dashoffset:23.10000038"
         d="m 326.86922,418.8931 c -0.98279,-36.0499 -12.72071,-51.85285 -15.90615,-63.6939 -2.15888,-8.02505 -3.52494,-25.2902 -5.27844,-29.23792 -2.16919,-4.88358 -15.20925,-23.1852 -24.39392,-30.87237 l -19.80055,-1.26108 c 12.35528,6.97389 26.99931,26.93738 29.67644,31.43023 -2.5188,5.72096 -2.79528,16.57968 0.46575,30.29883 2.11058,8.87924 7.72281,19.58912 10.53245,36.41263 2.34454,14.03862 0.26154,28.19459 -0.95339,36.36843"
         inkscape:connector-curvature="0"
         sodipodi:nodetypes="csscccssc" />
    </g>
    <g
       inkscape:groupmode="layer"
       id="layer14"
       inkscape:label="head"
       style="display:inline">
      <path
         sodipodi:nodetypes="csssccsssccscc"
         inkscape:connector-curvature="0"
         id="path1029"
         d="m 296.2242,235.44933 c -5.66871,-6.84629 -18.58855,-7.309 -30.34425,-5.43144 -13.19899,2.10807 -21.83956,12.5403 -40.97697,11.34443 -4.67422,-0.29209 -6.58266,-1.31861 -10.95843,-0.50832 -8.70654,1.61225 -17.67099,8.91091 -17.81366,17.94494 0,0 0.51098,-0.70675 1.69317,-0.0897 1.18219,0.61706 4.52343,6.35678 7.2412,8.32622 3.83764,2.78095 12.7182,2.37602 16.41817,1.89204 7.12361,-0.93182 18.13834,-0.21506 21.23388,0.93109 1.52776,0.56567 3.37986,1.79294 4.42273,3.44238 1.85938,5.66843 35.54902,17.87531 41.45877,17.52176 4.76116,-0.28484 9.87656,-18.65538 7.3742,-34.24108 -0.60367,-3.75988 -8.43927,-2.21991 -3.2529,-10.50044 2.19896,-7.9632 3.50409,-10.63188 3.50409,-10.63188 z"
         style="opacity:1;fill:#3250b0;fill-opacity:1;stroke:none;stroke-width:2.5;stroke-linecap:round;stroke-linejoin:round;stroke-miterlimit:4;stroke-dasharray:none;stroke-dashoffset:23.10000038;stroke-opacity:1" />
      <path
         sodipodi:nodetypes="cssssc"
         inkscape:connector-curvature="0"
         id="path1027"
         d="m 291.41413,292.21412 c -5.54692,6.72015 -19.0928,7.19237 -25.02002,5.70305 -5.39013,-1.35436 -17.49783,-10.4253 -25.37072,-12.99799 -6.2866,-2.05432 -17.27884,-1.49388 -25.29095,-3.9935 -7.63188,-2.38099 -14.84297,-7.18857 -17.56455,-11.48349 -2.04413,-3.22589 -2.33734,-8.38387 -1.97423,-10.6242 3.01239,-0.92303 5.80002,7.29557 9.79222,8.6116 3.9922,1.31603 11.56517,2.078 21.35623,1.08335 10.29727,-0.33892 17.47663,1.17018 19.98903,4.89848 13.41431,-4.41588 37.73172,-0.87196 44.08299,18.8027 z"
         style="opacity:1;fill:#c4d9f5;fill-opacity:1;stroke:none;stroke-width:2.5;stroke-linecap:round;stroke-linejoin:round;stroke-miterlimit:4;stroke-dasharray:none;stroke-dashoffset:23.10000038;stroke-opacity:1" />
      <path
         style="opacity:1;fill:#3a3c3f;fill-opacity:1;stroke:#292929;stroke-width:2.5;stroke-linecap:round;stroke-linejoin:round;stroke-miterlimit:4;stroke-dasharray:none;stroke-dashoffset:23.10000038;stroke-opacity:1"
         d="m 333.16543,225.64489 c -15.91737,-5.62959 -48.84197,1.44493 -53.06806,4.80001 1.68029,3.10508 13.54055,9.20718 13.54055,9.20718 13.62417,-8.01891 26.49744,-11.83432 39.52751,-14.00719 z"
         id="path1021"
         inkscape:connector-curvature="0"
         sodipodi:nodetypes="cccc" />
      <path
         style="opacity:1;fill:#3250b0;fill-opacity:1;stroke:#1d2848;stroke-width:2.5;stroke-linecap:round;stroke-linejoin:round;stroke-miterlimit:4;stroke-dasharray:none;stroke-dashoffset:23.10000038;stroke-opacity:1"
         d="m 276.83027,231.04119 c 2.44441,-0.9375 11.17432,-3.89557 12.69638,-4.10585 3.16209,1.12871 9.57126,6.10938 10.52692,7.51246 -2.31722,2.13683 -8.0739,5.39058 -8.0739,5.39058"
         id="path1023"
         inkscape:connector-curvature="0"
         sodipodi:nodetypes="cccc" />
      <path
         style="opacity:1;fill:#292f75;fill-opacity:1;stroke:none;stroke-width:3;stroke-linecap:round;stroke-linejoin:round;stroke-miterlimit:4;stroke-dasharray:none;stroke-dashoffset:23.10000038;stroke-opacity:1"
         d="m 271.52139,229.89679 c -3.10461,0.76108 -7.41686,1.99905 -6.26293,4.68996 3.16526,7.38122 18.35879,-0.25729 22.82533,3.0979 3.68734,2.76987 4.60829,-2.78112 3.08964,-5.44353 -1.51865,-2.66242 -12.95156,-4.84661 -19.65204,-2.34433 z"
         id="path1019"
         inkscape:connector-curvature="0"
         sodipodi:nodetypes="csscc" />
      <path
         style="opacity:1;fill:none;fill-opacity:1;stroke:#1d2848;stroke-width:2.5;stroke-linecap:round;stroke-linejoin:round;stroke-miterlimit:4;stroke-dasharray:none;stroke-dashoffset:23.10000038;stroke-opacity:1"
         d="m 247.14004,273.30097 c -1.04287,-1.64944 -2.89497,-2.87671 -4.42273,-3.44238 -3.09554,-1.14615 -14.11027,-1.86291 -21.23388,-0.93109 -3.69997,0.48398 -12.58053,0.88891 -16.41817,-1.89204 -2.71777,-1.96944 -6.05901,-7.70916 -7.2412,-8.32622 -1.18219,-0.61705 -1.69317,0.0897 -1.69317,0.0897 0.14267,-9.03403 9.10712,-16.33269 17.81366,-17.94494 4.37577,-0.81029 6.28421,0.21623 10.95843,0.50832 19.13741,1.19587 27.77798,-9.23636 40.97697,-11.34443 11.7557,-1.87756 24.67554,-1.41485 30.34425,5.43144"
         id="path1013"
         inkscape:connector-curvature="0"
         sodipodi:nodetypes="csssccsssc" />
      <path
         style="opacity:1;fill:#3a3c3f;fill-opacity:1;stroke:#292929;stroke-width:2.5;stroke-linecap:round;stroke-linejoin:round;stroke-miterlimit:4;stroke-dasharray:none;stroke-dashoffset:23.10000038;stroke-opacity:1"
         d="m 290.01802,234.01703 c 13.68748,-4.72586 48.63819,-6.47577 57.27616,0.24964 -12.9883,-0.94039 -45.64188,7.54988 -51.18273,12.64355"
         id="path1017"
         inkscape:connector-curvature="0"
         sodipodi:nodetypes="ccc"
         inkscape:transform-center-x="-20.580151"
         inkscape:transform-center-y="-7.580219" />
      <ellipse
         style="opacity:1;fill:#ffffff;fill-opacity:1;stroke:#000000;stroke-width:2.5;stroke-linecap:round;stroke-linejoin:round;stroke-miterlimit:4;stroke-dasharray:none;stroke-dashoffset:23.10000038;stroke-opacity:1"
         id="path1007"
         cx="340.71964"
         cy="40.091766"
         rx="10.292446"
         ry="12.58558"
         transform="rotate(37.342672)" />
      <ellipse
         style="opacity:1;fill:#ffffff;fill-opacity:1;stroke:#000000;stroke-width:2.5;stroke-linecap:round;stroke-linejoin:round;stroke-miterlimit:4;stroke-dasharray:none;stroke-dashoffset:23.10000038;stroke-opacity:1"
         id="path1003"
         cx="260.51709"
         cy="250.96918"
         rx="13.696651"
         ry="13.933242" />
      <ellipse
         style="fill:#1d2848;fill-opacity:1;stroke:none;stroke-width:3.16899991;stroke-linecap:round;stroke-linejoin:round;stroke-miterlimit:4;stroke-dasharray:none;stroke-dashoffset:23.10000038;stroke-opacity:1"
         id="path999"
         cx="327.2612"
         cy="229.80554"
         rx="2.1114197"
         ry="3.5012302"
         transform="rotate(6.9086939)" />
      <ellipse
         style="fill:#f01d0a;fill-opacity:1;stroke:none;stroke-width:3.16899991;stroke-linecap:round;stroke-linejoin:round;stroke-miterlimit:4;stroke-dasharray:none;stroke-dashoffset:23.10000038;stroke-opacity:1"
         id="path1001"
         cx="354.43561"
         cy="-38.18626"
         rx="3.2169383"
         ry="4.926302"
         transform="rotate(50.11348)" />
      <ellipse
         style="opacity:1;fill:#f01d0a;fill-opacity:1;stroke:none;stroke-width:2.5;stroke-linecap:round;stroke-linejoin:round;stroke-miterlimit:4;stroke-dasharray:none;stroke-dashoffset:23.10000038;stroke-opacity:1"
         id="path1005"
         cx="339.02322"
         cy="-1.8551556"
         rx="2.9351616"
         ry="4.3008518"
         transform="rotate(44.138717)" />
      <path
         style="opacity:1;fill:none;fill-opacity:1;stroke:#1d2848;stroke-width:2.5;stroke-linecap:round;stroke-linejoin:round;stroke-miterlimit:4;stroke-dasharray:none;stroke-dashoffset:23.10000038;stroke-opacity:1"
         d="m 210.17608,252.85547 c 0.74719,-2.60718 4.21714,-3.31102 8.23881,-3.00166 4.02167,0.30936 6.60673,1.46477 8.60439,1.84582 1.99765,0.38104 6.5797,0.42183 7.35902,0.2802"
         id="path1009"
         inkscape:connector-curvature="0"
         sodipodi:nodetypes="cssc" />
      <ellipse
         style="opacity:1;fill:#1d2848;fill-opacity:1;stroke:none;stroke-width:3;stroke-linecap:round;stroke-linejoin:round;stroke-miterlimit:4;stroke-dasharray:none;stroke-dashoffset:23.10000038;stroke-opacity:1"
         id="path1011"
         cx="231.33046"
         cy="242.85664"
         rx="2.7708161"
         ry="1.4379872"
         transform="rotate(3.1030055)" />
      <path
         style="opacity:1;fill:#3250b0;fill-opacity:1;stroke:#1d2848;stroke-width:2.5;stroke-linecap:round;stroke-linejoin:round;stroke-miterlimit:4;stroke-dasharray:none;stroke-dashoffset:23.10000038;stroke-opacity:1"
         d="m 291.33024,249.88185 c 1.35968,-0.72133 6.68564,-3.79256 7.16107,-4.11455 -0.79585,-3.08204 -4.92149,-11.33956 -6.16839,-12.52039 -2.44426,-0.0141 -8.94505,2.704 -10.28193,3.50965"
         id="path1015"
         inkscape:connector-curvature="0"
         sodipodi:nodetypes="cccc"
         inkscape:transform-center-x="7.5074815"
         inkscape:transform-center-y="-3.0182284" />
      <path
         style="opacity:1;fill:none;fill-opacity:1;stroke:#1d2848;stroke-width:2.5;stroke-linecap:round;stroke-linejoin:round;stroke-miterlimit:4;stroke-dasharray:none;stroke-dashoffset:23.10000038;stroke-opacity:1"
         d="m 196.19366,258.81799 c -0.36311,2.24033 -0.0699,7.39831 1.97423,10.6242 2.72158,4.29492 9.93267,9.1025 17.56455,11.48349 8.01211,2.49962 19.00435,1.93918 25.29095,3.9935 7.87289,2.57269 19.98059,11.64363 25.37072,12.99799 5.92722,1.48932 19.4731,1.0171 25.02002,-5.70305"
         id="path1025"
         inkscape:connector-curvature="0"
         sodipodi:nodetypes="cssssc" />
    </g>
    <g
       inkscape:groupmode="layer"
       id="layer15"
       inkscape:label="wing f"
       style="display:inline;opacity:1">
      <path
         inkscape:connector-curvature="0"
         id="path991"
         d="m 439.87314,448.30873 c -8.03285,-4.72635 -14.44449,12.1351 -15.39106,21.17531 -0.67704,-8.76212 -2.15151,-27.07658 -2.15151,-27.07658 -6.32102,-1.99571 -16.44165,1.04961 -19.53982,7.14045 -3.32935,-2.23465 -3.95991,-3.1693 -3.95991,-3.1693 -3.18198,-22.30938 -29.62522,-37.90795 -49.37521,-11.51932 -11.85621,-46.48343 0.42443,-90.02394 0.42443,-90.02394 l 27.32784,55.14192 -4.048,-54.79317 -21.18595,-63.63665 9.37817,1.9571 37.74246,36.98326 35.33037,59.56469 z"
         style="fill:#292f75;fill-opacity:1;stroke:none;stroke-width:3.16899991;stroke-linecap:round;stroke-linejoin:round;stroke-miterlimit:4;stroke-dasharray:none;stroke-dashoffset:23.10000038;stroke-opacity:1"
         sodipodi:nodetypes="cccccccccccccc" />
      <path
         id="path995"
         style="fill:#3250b0;fill-opacity:1;stroke:none;stroke-width:3;stroke-linecap:round;stroke-linejoin:round;stroke-miterlimit:4;stroke-dasharray:none;stroke-dashoffset:23.10000038"
         d="m 342.92225,322.54411 c 7.18878,0.88123 18.81686,16.95455 19.62685,19.88198 l 28.91347,37.00692 c 2.54912,24.52585 -5.94344,36.16454 -9.14163,36.34999 -8.84795,0.51306 -42.23952,-50.18262 -42.62584,-75.6879"
         inkscape:connector-curvature="0"
         sodipodi:nodetypes="cccsc" />
      <path
         style="fill:none;fill-opacity:1;stroke:#1d2848;stroke-width:2.5;stroke-linecap:round;stroke-linejoin:round;stroke-miterlimit:4;stroke-dasharray:none;stroke-dashoffset:23.10000038"
         d="m 342.92225,322.54411 c 7.18878,0.88123 21.6939,18.72393 22.50389,21.65136"
         id="path976"
         inkscape:connector-curvature="0"
         sodipodi:nodetypes="cc" />
      <path
         style="fill:none;fill-opacity:1;stroke:#1d2848;stroke-width:2.5;stroke-linecap:round;stroke-linejoin:round;stroke-miterlimit:4;stroke-dasharray:none;stroke-dashoffset:23.10000038;stroke-opacity:1"
         d="m 440.59948,447.98342 c -7.786,-4.05085 -15.35412,9.9358 -15.63809,21.56142 -0.67704,-8.76212 -2.63082,-27.13738 -2.63082,-27.13738 -6.32102,-1.99571 -15.70054,1.30844 -19.53982,7.14045 -3.32935,-2.23465 -3.95991,-3.1693 -3.95991,-3.1693 -3.18198,-22.30938 -29.62522,-37.90795 -49.37521,-11.51932"
         id="path987"
         inkscape:connector-curvature="0"
         sodipodi:nodetypes="cccccc" />
      <path
         style="fill:#3250b0;fill-opacity:1;stroke:#1d2848;stroke-width:2.5;stroke-linecap:round;stroke-linejoin:round;stroke-miterlimit:4;stroke-dasharray:none;stroke-dashoffset:23.10000038;stroke-opacity:1"
         d="m 360.85538,282.88452 c 8.32132,8.29442 28.74494,44.33623 32.28047,52.79687 3.53554,8.46064 10.4168,41.53955 11.64787,54.38708 1.23107,12.84752 1.17735,47.40416 -0.54369,58.48783 -0.97904,6.30514 -7.71892,6.69588 -6.22849,-2.76206 1.49044,-9.45795 1.91049,-41.87876 0.69418,-55.50159 -1.20514,-13.49753 -8.02102,-40.11971 -12.69044,-52.31223 -4.69663,-12.26355 -21.57108,-43.15037 -30.05455,-51.725"
         id="path984"
         inkscape:connector-curvature="0"
         sodipodi:nodetypes="ccsssssc" />
      <path
         style="fill:#3250b0;fill-opacity:1;stroke:#1d2848;stroke-width:2.5;stroke-linecap:round;stroke-linejoin:round;stroke-miterlimit:4;stroke-dasharray:none;stroke-dashoffset:23.10000038"
         d="m 357.73512,277.92904 c 10.98645,4.50461 38.72894,34.93402 45.14128,43.08236 6.50862,8.27067 30.59093,48.81757 33.68079,56.46051 4.82656,11.93876 6.27871,60.7529 7.27996,67.32452 1.00125,6.57162 -4.77671,9.08963 -6.11066,0.81726 -1.33395,-8.27237 -2.63813,-52.34327 -7.99909,-65.47834 -5.36096,-13.13507 -24.06349,-43.55077 -32.1174,-54.71962 -7.64804,-10.60601 -31.63318,-36.19908 -41.71856,-41.11678"
         id="path980"
         inkscape:connector-curvature="0"
         sodipodi:nodetypes="cssssssc" />
      <path
         sodipodi:nodetypes="cccsssssssc"
         inkscape:connector-curvature="0"
         id="path989"
         d="m 368.13136,374.81972 c -3.26187,-22.31449 -1.74726,-44.99604 -15.51129,-79.13889 -3.56908,0.59392 -10.11989,-7.03995 -8.18117,-13.09343 -4.64698,-0.0565 -8.70826,3.98683 -11.70195,3.47029 -2.32235,-0.40071 -3.01961,-3.65422 -1.70388,-5.31818 1.29292,-1.63512 11.46745,-7.47247 18.55569,-7.47 5.44796,0.002 10.64611,5.16513 11.73006,8.9945 1.08394,3.82936 0.61229,7.72726 2.49346,11.6168 2.07363,4.28749 24.15132,51.88767 27.65029,85.5522 2.54912,24.52585 -5.94344,36.16454 -9.14163,36.34999 -8.84795,0.51306 -40.57491,-51.52264 -40.12792,-77.02693"
         style="fill:#3250b0;fill-opacity:1;stroke:none;stroke-width:3;stroke-linecap:round;stroke-linejoin:round;stroke-miterlimit:4;stroke-dasharray:none;stroke-dashoffset:23.10000038" />
      <path
         style="fill:none;fill-opacity:1;stroke:#1d2848;stroke-width:2.5;stroke-linecap:round;stroke-linejoin:round;stroke-miterlimit:4;stroke-dasharray:none;stroke-dashoffset:23.10000038"
         d="m 368.13136,374.81972 c -3.26187,-22.31449 -1.74726,-44.99604 -15.51129,-79.13889 -3.56908,0.59392 -10.11989,-7.03995 -8.18117,-13.09343 -4.64698,-0.0565 -8.70826,3.98683 -11.70195,3.47029 -2.32235,-0.40071 -3.01961,-3.65422 -1.70388,-5.31818 1.29292,-1.63512 11.46745,-7.47247 18.55569,-7.47 5.44796,0.002 10.64611,5.16513 11.73006,8.9945 1.08394,3.82936 0.61229,7.72726 2.49346,11.6168 2.07363,4.28749 24.15132,51.88767 27.65029,85.5522 2.54912,24.52585 -5.94344,36.16454 -9.14163,36.34999 -8.84795,0.51306 -42.23952,-50.18262 -42.62584,-75.6879"
         id="path974"
         inkscape:connector-curvature="0"
         sodipodi:nodetypes="cccsssssssc" />
      <path
         style="fill:#3250b0;fill-opacity:1;stroke:#1d2848;stroke-width:2.5;stroke-linecap:round;stroke-linejoin:round;stroke-miterlimit:4;stroke-dasharray:none;stroke-dashoffset:23.10000038"
         d="m 357.04442,279.61389 c 11.65302,13.04938 32.75432,45.16982 36.73184,52.37559 3.97751,7.20576 27.101,57.80746 29.87168,70.19836 2.77069,12.39089 2.66146,60.58816 2.90354,65.58396 0.24208,4.99581 -6.33672,5.83452 -6.33672,0.70281 0,-5.13172 -1.91521,-57.0074 -3.34704,-64.38309 -1.41668,-7.29761 -24.67574,-61.07004 -28.53968,-68.41907 -4.08389,-7.76733 -24.79159,-38.74361 -34.18563,-49.54399"
         id="path978"
         inkscape:connector-curvature="0"
         sodipodi:nodetypes="cssssssc" />
    </g>
    <g
       inkscape:groupmode="layer"
       id="layer16"
       inkscape:label="leg f"
       style="display:inline">
      <path
         style="fill:#3250b0;stroke:#1d2848;stroke-width:2.5;stroke-linecap:round;stroke-linejoin:round;stroke-miterlimit:4;stroke-dasharray:none;stroke-dashoffset:23.10000038"
         d="m 351.75108,458.84222 c -3.7286,-29.99972 -35.96494,-68.50638 -54.85968,-68.55081 -21.09619,-0.0496 -22.4757,55.42105 -20.23956,76.06607 -19.83153,-13.66054 -61.5582,-10.25699 -61.84998,0.70365 -0.46794,17.5783 64.17003,29.76701 82.94519,19.33587 7.82521,-4.34754 14.38361,-28.95408 15.30494,-33.98405"
         id="path874"
         inkscape:connector-curvature="0"
         sodipodi:nodetypes="cscssc" />
    </g>
    <g
       inkscape:groupmode="layer"
       id="layer18"
       inkscape:label="tail f"
       style="display:inline;opacity:1">
      <path
         sodipodi:nodetypes="csssccsc"
         inkscape:connector-curvature="0"
         id="path1568"
         d="m 371.51891,431.73961 c -0.81127,19.64752 0.78094,50.34306 -3.91182,56.7099 -14.51974,19.69948 -46.96887,25.64078 -84.90339,18.56673 -36.05642,-6.72382 -76.33629,-25.69958 -79.67765,-41.64626 -2.93124,-13.98941 5.7568,-27.23988 14.13071,-32.49385 0.16814,10.04718 14.33482,14.16079 19.83434,14.63593 8.4778,20.67694 48.49887,28.83561 60.63795,30.4235 12.13907,1.58789 51.83554,-5.06558 59.35878,-31.98275"
         style="fill:#3250b0;stroke:none;stroke-width:2.5;stroke-linecap:round;stroke-linejoin:round;stroke-dashoffset:23.10000038" />
      <path
         style="fill:#292f75;stroke:none;stroke-width:2.5;stroke-linecap:round;stroke-linejoin:round;stroke-dashoffset:23.10000038"
         d="m 260.81793,469.3732 c -23.71049,-9.71285 -39.57633,-18.78733 -34.79221,-29.97827 l -9.07121,-5.27363 c -3.03547,20.94064 34.5844,34.44882 43.86342,35.2519 z"
         id="path918"
         inkscape:connector-curvature="0" />
      <path
         d="m 239.13398,447.45534 c -3.65554,6.11439 9.78414,18.29998 51.07525,26.56117 l -5.39172,-0.4343 c -22.65445,-3.53726 -55.24339,-14.82022 -52.46752,-30.05527"
         style="fill:#c4d9f5;stroke:none;stroke-width:2.5;stroke-linecap:round;stroke-linejoin:round;stroke-dashoffset:23.10000038"
         id="path1566"
         inkscape:connector-curvature="0"
         sodipodi:nodetypes="cccc" />
      <path
         id="path920"
         style="fill:none;stroke:#1d2848;stroke-width:2.5;stroke-linecap:round;stroke-linejoin:round;stroke-dashoffset:23.10000038"
         d="m 284.81751,473.58221 c -22.65445,-3.53726 -55.24339,-14.82022 -52.46752,-30.05527 m 6.78399,3.9284 c -3.65554,6.11439 9.78414,18.29998 51.07525,26.56117"
         inkscape:connector-curvature="0"
         sodipodi:nodetypes="cccc" />
      <path
         id="path964"
         style="fill:#292f75;stroke:none;stroke-width:2.5;stroke-linecap:round;stroke-linejoin:round;stroke-dashoffset:23.10000038"
         d="m 219.03775,430.39409 c -11.40331,15.26393 17.02614,36.65181 61.09244,42.5605 55.11866,7.39065 74.92778,-12.33104 77.07445,-29.83534 l 14.18912,-11.13297 c -4.63388,22.31933 -13.02595,60.50883 -85.24042,52.6351 -56.69461,-6.18156 -77.63969,-28.14468 -76.72433,-43.82044 -1.35899,-0.92353 12.66967,-13.95228 9.60874,-10.40685 z"
         inkscape:connector-curvature="0"
         sodipodi:nodetypes="csccscc" />
      <path
         id="path957"
         style="fill:#c4d9f5;stroke:none;stroke-width:2.5;stroke-linecap:round;stroke-linejoin:round;stroke-dashoffset:23.10000038"
         d="m 369.80554,481.59007 c -0.51107,3.13423 -1.21742,5.52845 -2.19845,6.85944 -14.51975,19.69947 -46.96887,25.64078 -84.90339,18.56673 -36.05642,-6.72382 -76.3363,-25.69958 -79.67765,-41.64626 -0.45369,-2.16523 -0.58711,-4.5434 -0.39638,-7.02553 1.04156,-13.55476 -0.0529,0.37642 -0.0529,0.37642 9.37005,15.846 38.20388,35.78246 84.70952,42.59174 46.50565,6.80928 73.64781,-6.82937 82.36949,-20.19395 0,0 2.08336,-11.38703 0.14972,0.47141 z"
         inkscape:connector-curvature="0"
         sodipodi:nodetypes="csssccscc" />
      <path
         style="fill:none;stroke:#1d2848;stroke-width:2.5;stroke-linecap:round;stroke-linejoin:round;stroke-dashoffset:23.10000038"
         d="m 357.20464,443.11925 c -2.14667,17.5043 -21.95579,37.22599 -77.07445,29.83534 -44.0663,-5.90869 -72.70687,-29.09849 -61.72282,-40.08253 3.3494,-3.34939 9.17561,-7.64297 16.76997,-8.95576"
         id="path910"
         inkscape:connector-curvature="0"
         sodipodi:nodetypes="cscc" />
      <path
         style="fill:none;stroke:#1d2848;stroke-width:2.5;stroke-linecap:round;stroke-linejoin:round;stroke-dashoffset:23.10000038"
         d="m 371.51891,431.73961 c -0.81127,19.64752 0.78094,50.34306 -3.91182,56.7099 -14.51974,19.69948 -46.96887,25.64078 -84.90339,18.56673 -36.05642,-6.72382 -76.33629,-25.69958 -79.67765,-41.64626 -2.93124,-13.98941 7.39544,-39.01519 32.24936,-41.38845"
         id="path912"
         inkscape:connector-curvature="0"
         sodipodi:nodetypes="csssc" />
      <path
         style="fill:none;stroke:#1d2848;stroke-width:2.5;stroke-linecap:round;stroke-linejoin:round;stroke-dashoffset:23.10000038"
         d="m 202.57681,458.72087 c 9.37005,15.846 38.20388,35.78246 84.70952,42.59174 46.50565,6.80928 73.64781,-6.82937 82.36949,-20.19395"
         id="path914"
         inkscape:connector-curvature="0"
         sodipodi:nodetypes="csc" />
    </g>
    <g
       inkscape:groupmode="layer"
       id="layer17"
       inkscape:label="arm f"
       style="display:inline">
      <path
         id="path1823"
         style="fill:#3250b0;fill-opacity:1;stroke:none;stroke-width:3;stroke-linecap:round;stroke-linejoin:round;stroke-miterlimit:4;stroke-dasharray:none;stroke-dashoffset:23.10000038;stroke-opacity:1"
         d="m 335.26103,338.58617 c 13.83871,12.51883 30.07929,62.24083 29.70703,76.82311 -0.32878,12.87899 -9.1243,14.91319 -18.03004,11.75646 -8.90575,-3.15672 -17.95881,-9.1002 -24.65356,-15.22551 -6.62457,-6.0611 -39.33206,-37.11603 -41.80376,-39.03772 -2.47171,-1.92168 -4.18009,-2.08137 -6.87062,-3.01603 -3.47813,-1.20827 -6.63537,-5.15944 -8.16562,-7.66032 -6.45657,-10.55197 4.22713,-20.31319 11.76056,-19.91289 5.17853,0.27518 10.87815,5.15339 11.72518,7.62586 0.73584,2.1479 0.22659,4.24447 -1.71654,5.95118 0,0 -1.14351,-0.93216 -0.48147,0.36727 0.81255,1.59486 1.86889,3.31731 3.97604,4.84333 6.22372,3.94797 19.52459,10.642 31.04784,16.85489 -8.89973,-15.79362 -8.93589,-35.57373 -7.39984,-41.63678"
         inkscape:connector-curvature="0"
         sodipodi:nodetypes="cscscccccccccc" />
      <path
         style="fill:#c4d9f5;fill-opacity:1;stroke:none;stroke-width:2;stroke-linecap:round;stroke-linejoin:round;stroke-miterlimit:4;stroke-dasharray:none;stroke-dashoffset:23.10000038;stroke-opacity:1"
         d="m 279.84761,342.71155 c 1.20293,2.27153 -0.43258,5.78212 -0.43258,5.78212 0,0 5.75261,4.28783 6.7962,7.52426 3.52287,-2.26696 4.14948,-4.69374 2.72738,-6.86315 -1.4221,-2.16941 -6.38114,-6.36347 -9.091,-6.44323 z"
         id="path1833"
         inkscape:connector-curvature="0" />
      <path
         style="fill:none;fill-opacity:1;stroke:#1d2848;stroke-width:3;stroke-linecap:round;stroke-linejoin:round;stroke-miterlimit:4;stroke-dasharray:none;stroke-dashoffset:23.10000038;stroke-opacity:1"
         d="m 287.21366,355.89031 c 1.94313,-1.70671 2.45238,-3.80328 1.71654,-5.95118 -0.84703,-2.47247 -6.54665,-7.35068 -11.72518,-7.62586 -7.53343,-0.4003 -18.21713,9.36092 -11.76056,19.91289 1.53025,2.50088 4.68749,6.45205 8.16562,7.66032 2.69053,0.93466 4.39891,1.09435 6.87062,3.01603 2.4717,1.92169 35.17919,32.97662 41.80376,39.03772 6.69475,6.12531 15.74781,12.06879 24.65356,15.22551 8.90574,3.15673 17.70126,1.12253 18.03004,-11.75646 0.37226,-14.58228 -15.86832,-64.30428 -29.70703,-76.82311"
         id="path1802"
         inkscape:connector-curvature="0"
         sodipodi:nodetypes="csssscsssc" />
      <path
         style="fill:#bcbec1;fill-opacity:1;stroke:#848484;stroke-width:2.5;stroke-linecap:round;stroke-linejoin:round;stroke-miterlimit:4;stroke-dasharray:none;stroke-dashoffset:23.10000038;stroke-opacity:1"
         d="m 283.28431,164.48383 c -1.09327,40.97205 0.57696,215.86389 0.76486,222.95339 0.1879,7.08949 -2.90298,17.31574 -14.53547,17.19404 -10.6602,-0.11153 -13.1069,-10.60544 -12.68663,-16.38459 0.42027,-5.77916 5.72133,-7.56703 6.41237,-0.86573 0.4018,3.89639 1.40557,10.53158 7.52879,10.06184 5.85921,-0.44949 7.60129,-8.4646 7.16711,-14.27544 -0.43418,-5.81083 -0.0296,-198.68314 -0.93501,-218.4294"
         id="path1818"
         inkscape:connector-curvature="0"
         sodipodi:nodetypes="cssssssc" />
      <path
         style="fill:#7ac240;fill-opacity:1;stroke:none;stroke-width:3;stroke-linecap:round;stroke-linejoin:round;stroke-miterlimit:4;stroke-dasharray:none;stroke-dashoffset:23.10000038;stroke-opacity:1"
         d="m 281.77395,164.28169 c -4.92879,25.34351 -5.43433,55.37589 1.80416,70.31313 28.13158,-28.88445 54.63006,-29.78012 79.40651,-12.20338 -8.79488,-24.46711 -68.11391,-57.52225 -81.21067,-58.10975 z"
         id="path1814"
         inkscape:connector-curvature="0"
         sodipodi:nodetypes="cccc" />
      <path
         style="fill:#f67634;fill-opacity:1;stroke:none;stroke-width:3;stroke-linecap:round;stroke-linejoin:round;stroke-miterlimit:4;stroke-dasharray:none;stroke-dashoffset:23.10000038;stroke-opacity:1"
         d="m 204.71275,236.16188 c 8.85247,-30.20202 56.7751,-70.15672 77.4553,-71.87443 -3.38342,13.02304 -5.58398,55.99497 2.6651,70.5893 -30.14911,-22.60542 -66.5229,-14.14538 -80.1204,1.28513 z"
         id="path1812"
         inkscape:connector-curvature="0"
         sodipodi:nodetypes="cccc" />
      <path
         style="fill:#0193cf;fill-opacity:1;stroke:none;stroke-width:3;stroke-linecap:round;stroke-linejoin:round;stroke-miterlimit:4;stroke-dasharray:none;stroke-dashoffset:23.10000038;stroke-opacity:1"
         d="m 282.61916,162.43803 c 57.12224,5.28543 105.94222,36.78646 117.21803,44.16945 -18.34361,-6.17524 -32.32994,4.62892 -36.66482,15.78274 -12.82473,-20.50597 -62.20783,-54.35853 -76.9532,-55.8057 -3.42133,-0.33578 -3.60001,-4.14649 -3.60001,-4.14649 z"
         id="path1816"
         inkscape:connector-curvature="0"
         sodipodi:nodetypes="cccsc" />
      <path
         style="fill:#f13e32;fill-opacity:1;stroke:none;stroke-width:3;stroke-linecap:round;stroke-linejoin:round;stroke-miterlimit:4;stroke-dasharray:none;stroke-dashoffset:23.10000038;stroke-opacity:1"
         d="m 205.11814,236.87689 c 4.54568,-19.08575 55.09778,-71.71134 76.06785,-71.76047 -2.22243,-2.31357 -4.72408,-2.92127 -4.72408,-2.92127 -62.11823,5.2695 -123.69528,41.32907 -135.54838,56.09759 21.21925,-4.28706 54.04886,3.50703 64.20461,18.58415 z"
         id="path1810"
         inkscape:connector-curvature="0"
         sodipodi:nodetypes="ccccc" />
      <path
         id="path1830"
         style="fill:#3250b0;fill-opacity:1;stroke:none;stroke-width:3;stroke-linecap:round;stroke-linejoin:round;stroke-miterlimit:4;stroke-dasharray:none;stroke-dashoffset:23.10000038;stroke-opacity:1"
         d="m 351.20474,400.27276 c -0.99685,-1.76898 -2.27529,-4.36411 -11.53959,-11.60196 -8.87823,-6.93623 -38.64042,-21.02569 -48.95692,-27.56989 -3.82397,-2.76936 -4.18725,-6.18566 -5.91316,-8.31226 -0.96422,-1.18808 -4.90505,-4.65822 -8.59205,-5.65478 l -10.75856,15.09229 c 1.53025,2.50088 4.68749,6.45205 8.16562,7.66032 2.69053,0.93466 4.39891,1.09435 6.87062,3.01603 2.4717,1.92169 35.17919,32.97662 41.80376,39.03772 6.69475,6.12531 15.74781,12.06879 24.65356,15.22551 8.90574,3.15673 17.70126,1.12253 18.03004,-11.75646"
         inkscape:connector-curvature="0"
         sodipodi:nodetypes="csccccccscc" />
      <path
         style="fill:none;fill-opacity:1;stroke:#1d2848;stroke-width:3;stroke-linecap:round;stroke-linejoin:round;stroke-miterlimit:4;stroke-dasharray:none;stroke-dashoffset:23.10000038;stroke-opacity:1"
         d="m 276.20302,347.13387 c 3.687,0.99656 7.62783,4.4667 8.59205,5.65478 1.72591,2.1266 2.08919,5.5429 5.91316,8.31226 10.3165,6.5442 40.07869,20.63366 48.95692,27.56989 9.2643,7.23785 10.54274,9.83298 11.53959,11.60196"
         id="path1800"
         inkscape:connector-curvature="0"
         sodipodi:nodetypes="cscsc" />
      <path
         style="fill:none;fill-opacity:1;stroke:#1d2848;stroke-width:3;stroke-linecap:round;stroke-linejoin:round;stroke-miterlimit:4;stroke-dasharray:none;stroke-dashoffset:23.10000038;stroke-opacity:1"
         d="m 314.23683,336.64241 c -2.75072,14.78809 4.06966,36.70863 8.21979,41.70637"
         id="path1804"
         inkscape:connector-curvature="0" />
      <path
         style="fill:none;fill-opacity:1;stroke:#1d2848;stroke-width:2.5;stroke-linecap:round;stroke-linejoin:round;stroke-miterlimit:4;stroke-dasharray:none;stroke-dashoffset:23.10000038;stroke-opacity:1"
         d="m 140.47574,218.32976 c 23.68938,-3.17307 51.17147,1.69998 64.72894,18.56192 18.56571,-18.70447 51.97216,-22.33476 79.01282,-2.25608 19.51717,-20.57445 47.12035,-36.4741 78.56108,-12.66588 6.96037,-17.71349 23.19375,-19.09863 38.02883,-15.39107 -26.45234,-16.69573 -87.73151,-44.09525 -119.57845,-44.70051 -22.13445,-0.42067 -109.55319,25.2972 -140.75322,56.45162 z"
         id="path1806"
         inkscape:connector-curvature="0"
         sodipodi:nodetypes="cccccsc" />
      <path
         style="fill:#bcbec1;fill-opacity:1;stroke:#848484;stroke-width:2.5;stroke-linecap:round;stroke-linejoin:round;stroke-miterlimit:4;stroke-dasharray:none;stroke-dashoffset:23.10000038;stroke-opacity:1"
         d="m 281.59051,154.24938 c -1.4924,2.27754 -2.26788,5.77615 -2.16438,8.73335 -3.23653,-0.31783 -6.6822,4.82834 3.27355,4.5262 9.95576,-0.30215 4.20876,-4.14074 1.51967,-4.17684 -0.24585,-3.21609 -0.65162,-8.31137 -2.62884,-9.08271 z"
         id="path1808"
         inkscape:connector-curvature="0"
         sodipodi:nodetypes="ccscc" />
      <path
         sodipodi:nodetypes="cscsssc"
         inkscape:connector-curvature="0"
         id="path1826"
         d="m 265.44446,362.22616 c 1.53025,2.50088 4.68749,6.45205 8.16562,7.66032 2.69053,0.93466 4.39891,1.09435 6.87062,3.01603 2.4717,1.92169 35.17919,32.97662 41.80376,39.03772 6.69475,6.12531 15.74781,12.06879 24.65356,15.22551 8.90574,3.15673 17.70126,1.12253 18.03004,-11.75646 0.37226,-14.58228 -15.86832,-64.30428 -29.70703,-76.82311"
         style="fill:none;fill-opacity:1;stroke:#1d2848;stroke-width:3;stroke-linecap:round;stroke-linejoin:round;stroke-miterlimit:4;stroke-dasharray:none;stroke-dashoffset:23.10000038;stroke-opacity:1" />
    </g>
  </g>
  <g
     inkscape:groupmode="layer"
     id="layer3"
     inkscape:label="weather"
     style="display:inline">
    <g
       inkscape:groupmode="layer"
       id="layer4"
       inkscape:label="sun"
       style="display:none">
      <circle
         style="fill:#fffb85;fill-opacity:1;stroke:none;stroke-width:3.16866;stroke-linecap:round;stroke-linejoin:round;stroke-miterlimit:4;stroke-dasharray:none;stroke-dashoffset:23.1;stroke-opacity:1"
         id="path1002"
         cx="268.63031"
         cy="52.25285"
         r="52.25285" />
    </g>
    <g
       inkscape:groupmode="layer"
       id="layer5"
       inkscape:label="moon"
       style="display:none;opacity:1">
      <path
         style="display:inline;opacity:1;fill:#f3f3f3;fill-opacity:1;stroke:#d4d7d9;stroke-width:2.5;stroke-linecap:round;stroke-linejoin:round;stroke-miterlimit:4;stroke-dasharray:none;stroke-dashoffset:23.1;stroke-opacity:1"
         d="m 268.63122,1.5845 a 52.25285,52.25285 0 0 0 -9.76367,0.95898 58.803188,58.803188 0 0 1 30.10547,51.292974 58.803188,58.803188 0 0 1 -30.18946,51.292966 52.25285,52.25285 0 0 0 9.84766,0.96094 A 52.25285,52.25285 0 0 0 320.88317,53.836454 52.25285,52.25285 0 0 0 268.63122,1.5845 Z"
         id="path1002-3"
         inkscape:connector-curvature="0" />
      <path
         sodipodi:type="star"
         style="fill:#fffb85;fill-opacity:1;stroke:none;stroke-width:3;stroke-linecap:round;stroke-linejoin:round;stroke-miterlimit:4;stroke-dasharray:none;stroke-dashoffset:23.1"
         id="path970"
         sodipodi:sides="5"
         sodipodi:cx="113.4958"
         sodipodi:cy="34.449829"
         sodipodi:r1="17.19249"
         sodipodi:r2="6.8769956"
         sodipodi:arg1="0.95838744"
         sodipodi:arg2="1.586706"
         inkscape:flatsided="false"
         inkscape:rounded="0"
         inkscape:randomized="0"
         d="m 123.37873,48.517853 -9.99234,-7.191899 -10.21608,6.870363 3.75209,-11.7257 -9.691043,-7.593015 12.311263,-0.05498 4.22669,-11.563105 3.85668,11.691719 12.30329,0.446624 -9.92771,7.280862 z"
         inkscape:transform-center-x="-0.08452073"
         inkscape:transform-center-y="-1.5611449" />
      <path
         inkscape:transform-center-y="-1.5611449"
         inkscape:transform-center-x="-0.08452073"
         d="m 185.12007,39.697358 -9.99234,-7.191899 -10.21608,6.870363 3.75209,-11.7257 -9.69104,-7.593016 12.31126,-0.05498 4.22669,-11.5631043 3.85668,11.6917193 12.30329,0.446623 -9.92771,7.280862 z"
         inkscape:randomized="0"
         inkscape:rounded="0"
         inkscape:flatsided="false"
         sodipodi:arg2="1.586706"
         sodipodi:arg1="0.95838744"
         sodipodi:r2="6.8769956"
         sodipodi:r1="17.19249"
         sodipodi:cy="25.629333"
         sodipodi:cx="175.23714"
         sodipodi:sides="5"
         id="path972"
         style="fill:#fffb85;fill-opacity:1;stroke:none;stroke-width:3;stroke-linecap:round;stroke-linejoin:round;stroke-miterlimit:4;stroke-dasharray:none;stroke-dashoffset:23.1"
         sodipodi:type="star" />
    </g>
    <g
       inkscape:groupmode="layer"
       id="layer6"
       inkscape:label="rain"
       style="display:inline">
      <path
         style="fill:#fffa48;stroke:#89ccf9;stroke-width:3;stroke-linecap:round;stroke-linejoin:round;stroke-miterlimit:4;stroke-dasharray:12, 12;stroke-dashoffset:23.1;stroke-opacity:1"
         d="m 115.31685,105.49203 44.68523,106.71322"
         id="path988"
         inkscape:connector-curvature="0" />
      <path
         inkscape:connector-curvature="0"
         id="path990"
         d="M 155.28567,101.80677 199.9709,208.51999"
         style="fill:#fffa48;stroke:#89ccf9;stroke-width:3;stroke-linecap:round;stroke-linejoin:round;stroke-miterlimit:4;stroke-dasharray:12, 12;stroke-dashoffset:23.1;stroke-opacity:1" />
      <path
         style="fill:#fffa48;stroke:#89ccf9;stroke-width:3;stroke-linecap:round;stroke-linejoin:round;stroke-miterlimit:4;stroke-dasharray:12, 12;stroke-dashoffset:23.1;stroke-opacity:1"
         d="M 188.48801,93.206678 241.46459,212.46076"
         id="path992"
         inkscape:connector-curvature="0"
         sodipodi:nodetypes="cc" />
      <path
         inkscape:connector-curvature="0"
         id="path994"
         d="M 229.25304,90.313437 273.93827,197.02666"
         style="fill:#fffa48;stroke:#89ccf9;stroke-width:3;stroke-linecap:round;stroke-linejoin:round;stroke-miterlimit:4;stroke-dasharray:12, 12;stroke-dashoffset:23.1;stroke-opacity:1" />
      <path
         style="fill:#fffa48;stroke:#89ccf9;stroke-width:3;stroke-linecap:round;stroke-linejoin:round;stroke-miterlimit:4;stroke-dasharray:12, 12;stroke-dashoffset:23.1;stroke-opacity:1"
         d="m 270.68349,90.109972 39.09573,95.778378"
         id="path996"
         inkscape:connector-curvature="0"
         sodipodi:nodetypes="cc" />
      <path
         inkscape:connector-curvature="0"
         id="path998"
         d="m 326.38143,101.8151 44.68523,106.71322"
         style="fill:#fffa48;stroke:#89ccf9;stroke-width:3;stroke-linecap:round;stroke-linejoin:round;stroke-miterlimit:4;stroke-dasharray:12, 12;stroke-dashoffset:23.1;stroke-opacity:1" />
    </g>
    <g
       inkscape:groupmode="layer"
       id="layer7"
       inkscape:label="thunder"
       style="display:none;opacity:1">
      <path
         style="fill:#fffa48;stroke:#ecc510;stroke-width:2.5;stroke-linecap:round;stroke-linejoin:round;stroke-miterlimit:4;stroke-dasharray:none;stroke-opacity:1"
         d="m 118.54607,120.25776 c -7.05066,8.04233 -23.714089,36.2813 -21.889229,37.33529 1.82486,1.05399 14.291859,-6.24951 15.212529,-5.15273 0.92066,1.09678 -21.746129,35.03486 -23.631499,39.73189 2.58088,-0.42019 6.33185,-2.1521 9.37238,-2.51077 0.9272,1.24128 -28.33777,48.34182 -26.17974,49.28514 2.15803,0.94332 52.480019,-70.50072 50.557839,-71.40368 -1.89087,-0.88825 -14.33602,9.44265 -16.94097,10.07359 1.24045,-4.24144 32.10887,-39.1303 30.43931,-41.23888 -1.1551,-1.45883 -11.87971,3.45428 -14.34471,3.32307 0.66747,-2.80636 24.4356,-21.84199 24.4356,-21.84199 z"
         id="path986"
         inkscape:connector-curvature="0"
         sodipodi:nodetypes="cscccsscsccc" />
    </g>
    <g
       inkscape:groupmode="layer"
       id="layer8"
       inkscape:label="cloud"
       style="display:inline;opacity:1">
      <path
         id="path983"
         style="fill:#d9f3fc;stroke:none;stroke-width:3;stroke-linecap:round;stroke-linejoin:round;stroke-opacity:1;fill-opacity:1"
         d="m 352.20271,111.47157 c 1.21852,25.22436 -48.32477,31.52275 -78.85296,21.0671 -12.05137,10.80611 -100.65504,12.36366 -123.43631,-10.71454 -34.10528,4.78916 -76.540049,-8.46146 -75.219739,-35.929706 0.71461,-14.86706 33.804089,-32.806725 64.514889,-26.854003 8.35049,-27.141729 80.7509,-36.907779 108.44708,1.255302 27.06132,-13.923557 86.70691,18.40028 62.90318,30.925573 16.74507,-0.923679 40.92382,5.3448 41.64386,20.250274 z"
         inkscape:connector-curvature="0"
         sodipodi:nodetypes="sccscccs" />
      <path
         style="fill:none;stroke:#3985c3;stroke-width:2.5;stroke-linecap:round;stroke-linejoin:round;stroke-miterlimit:4;stroke-dasharray:none;stroke-opacity:1"
         d="m 154.34406,63.79816 c -34.34712,-16.569159 -78.820649,4.834607 -79.650359,22.096264 -1.32032,27.468246 41.114459,40.718866 75.219739,35.929706 22.78127,23.0782 111.38494,21.52065 123.43631,10.71454 30.52819,10.45565 80.07148,4.15726 78.85296,-21.0671 -0.9791,-20.268112 -45.33314,-24.566491 -54.4268,-16.565948"
         id="path979"
         inkscape:connector-curvature="0"
         sodipodi:nodetypes="csccsc" />
      <path
         style="fill:none;stroke:#3985c3;stroke-width:2.5;stroke-linecap:round;stroke-linejoin:round;stroke-miterlimit:4;stroke-dasharray:none;stroke-opacity:1"
         d="m 157.28153,93.07315 c 11.51864,-9.944044 33.1662,-16.640581 46.69638,-14.545441"
         id="path973"
         inkscape:connector-curvature="0" />
      <path
         style="fill:none;stroke:#3985c3;stroke-width:2.5;stroke-linecap:round;stroke-linejoin:round;stroke-miterlimit:4;stroke-dasharray:none;stroke-opacity:1"
         d="m 243.89861,97.923221 c 6.02805,-5.353458 21.06798,-9.294281 30.7503,-7.786058"
         id="path975"
         inkscape:connector-curvature="0" />
      <path
         style="fill:none;stroke:#3985c3;stroke-width:2.5;stroke-linecap:round;stroke-linejoin:round;stroke-miterlimit:4;stroke-dasharray:none;stroke-opacity:1"
         d="m 139.27334,58.671771 c 8.75063,-27.19974 80.68615,-36.539129 108.38233,1.623952 27.06132,-13.923557 86.70691,18.40028 62.51927,30.940759"
         id="path977"
         inkscape:connector-curvature="0"
         sodipodi:nodetypes="ccc" />
    </g>
  </g>
</svg>
