<?xml version="1.0" encoding="UTF-8" standalone="no"?>
<!-- Created with Inkscape (http://www.inkscape.org/) -->

<svg
   xmlns:dc="http://purl.org/dc/elements/1.1/"
   xmlns:cc="http://creativecommons.org/ns#"
   xmlns:rdf="http://www.w3.org/1999/02/22-rdf-syntax-ns#"
   xmlns:svg="http://www.w3.org/2000/svg"
   xmlns="http://www.w3.org/2000/svg"
   xmlns:xlink="http://www.w3.org/1999/xlink"
   xmlns:sodipodi="http://sodipodi.sourceforge.net/DTD/sodipodi-0.dtd"
   xmlns:inkscape="http://www.inkscape.org/namespaces/inkscape"
   width="512"
   height="512"
   viewBox="0 0 512 512"
   version="1.1"
   id="svg4575"
   inkscape:version="0.92+devel (6a5a7c5155, 2018-08-05)"
   sodipodi:docname="thumbs-up.svg"
   inkscape:export-filename="../stickers/thumbs-up.png"
   inkscape:export-xdpi="96"
   inkscape:export-ydpi="96">
  <defs
     id="defs4569">
    <inkscape:path-effect
       effect="taper_stroke"
       id="path-effect1056"
       is_visible="true"
       stroke_width="6"
       attach_start="0.022778381"
       end_offset="0.35253244"
       smoothing="0.5"
       jointype="round"
       miter_limit="100" />
    <inkscape:path-effect
       effect="taper_stroke"
       id="path-effect1024"
       is_visible="true"
       stroke_width="6"
       attach_start="0.29727253"
       end_offset="0.2"
       smoothing="0.5"
       jointype="extrapolated"
       miter_limit="100" />
    <inkscape:path-effect
       effect="taper_stroke"
       id="path-effect1020"
       is_visible="true"
       stroke_width="6"
       attach_start="0.37048764"
       end_offset="0.45334606"
       smoothing="0.5"
       jointype="round"
       miter_limit="100" />
    <inkscape:path-effect
       effect="taper_stroke"
       id="path-effect996"
       is_visible="true"
       stroke_width="6"
       attach_start="0.53120562"
       end_offset="0.2"
       smoothing="0.5"
       jointype="extrapolated"
       miter_limit="100" />
    <inkscape:path-effect
       effect="taper_stroke"
       id="path-effect992"
       is_visible="true"
       stroke_width="6"
       attach_start="0.41919407"
       end_offset="0.2956065"
       smoothing="0.5"
       jointype="extrapolated"
       miter_limit="100" />
    <inkscape:path-effect
       effect="taper_stroke"
       id="path-effect988"
       is_visible="true"
       stroke_width="6"
       attach_start="0.19298503"
       end_offset="0.2"
       smoothing="0.5"
       jointype="extrapolated"
       miter_limit="100" />
    <inkscape:path-effect
       effect="taper_stroke"
       id="path-effect984"
       is_visible="true"
       stroke_width="6"
       attach_start="0.30893564"
       end_offset="0.44895563"
       smoothing="0.5"
       jointype="extrapolated"
       miter_limit="100" />
    <inkscape:path-effect
       effect="taper_stroke"
       id="path-effect961"
       is_visible="true"
       stroke_width="6"
       attach_start="0.78638864"
       end_offset="0.2"
       smoothing="0.5"
       jointype="extrapolated"
       miter_limit="100" />
    <inkscape:path-effect
       miter_limit="100"
       jointype="extrapolated"
       smoothing="0.5"
       end_offset="0.12692015"
       attach_start="0.18729015"
       stroke_width="6"
       is_visible="true"
       id="path-effect948"
       effect="taper_stroke" />
    <inkscape:path-effect
       miter_limit="100"
       jointype="extrapolated"
       smoothing="0.5"
       end_offset="0.2873817"
       attach_start="0.37765722"
       stroke_width="6"
       is_visible="true"
       id="path-effect944"
       effect="taper_stroke" />
    <inkscape:path-effect
       miter_limit="100"
       jointype="round"
       smoothing="0.5"
       end_offset="0.015273556"
       attach_start="0.12976416"
       stroke_width="6"
       is_visible="true"
       id="path-effect937"
       effect="taper_stroke" />
    <inkscape:path-effect
       effect="taper_stroke"
       id="path-effect931"
       is_visible="true"
       stroke_width="6"
       attach_start="0.12976416"
       end_offset="0.015273556"
       smoothing="0.5"
       jointype="round"
       miter_limit="100" />
    <inkscape:path-effect
       effect="taper_stroke"
       id="path-effect927"
       is_visible="true"
       stroke_width="6"
       attach_start="0.37765722"
       end_offset="0.2873817"
       smoothing="0.5"
       jointype="extrapolated"
       miter_limit="100" />
    <inkscape:path-effect
       effect="taper_stroke"
       id="path-effect904"
       is_visible="true"
       stroke_width="6"
       attach_start="0.18729015"
       end_offset="0.21788094"
       smoothing="0.5"
       jointype="extrapolated"
       miter_limit="100" />
  </defs>
  <sodipodi:namedview
     id="base"
     pagecolor="#ffffff"
     bordercolor="#666666"
     borderopacity="1.0"
     inkscape:pageopacity="0.0"
     inkscape:pageshadow="2"
     inkscape:zoom="0.7"
     inkscape:cx="-383.06902"
     inkscape:cy="48.793219"
     inkscape:document-units="px"
     inkscape:current-layer="layer4"
     showgrid="false"
     units="px"
     inkscape:pagecheckerboard="true"
     inkscape:window-width="2408"
     inkscape:window-height="1411"
     inkscape:window-x="30"
     inkscape:window-y="0"
     inkscape:window-maximized="1"
     inkscape:document-rotation="0"
     borderlayer="true"
     inkscape:snap-global="false" />
  <metadata
     id="metadata4572">
    <rdf:RDF>
      <cc:Work
         rdf:about="">
        <dc:format>image/svg+xml</dc:format>
        <dc:type
           rdf:resource="http://purl.org/dc/dcmitype/StillImage" />
        <dc:title />
      </cc:Work>
    </rdf:RDF>
  </metadata>
  <g
     inkscape:label="ref"
     inkscape:groupmode="layer"
     id="layer1"
     transform="translate(0,-161.53332)"
     sodipodi:insensitive="true"
     style="display:none">
    <image
       y="-538.83728"
       x="89.439651"
       width="586.85352"
       height="539.75452"
       preserveAspectRatio="none"
       xlink:href="file:///home/melano/Pictures/Dragons/Glax/sketches/thumbs-up.jpeg"
       id="image889"
       sodipodi:absref="/home/melano/Pictures/Dragons/Glax/sketches/thumbs-up.jpeg"
       style="opacity:1"
       transform="rotate(90.104661)" />
  </g>
  <g
     inkscape:groupmode="layer"
     id="layer2"
     inkscape:label="durg">
    <g
       inkscape:groupmode="layer"
       id="layer3"
       inkscape:label="wing b" />
    <g
       inkscape:groupmode="layer"
       id="layer4"
       inkscape:label="arm b">
      <path
         style="opacity:1;fill:#3250b0;stroke:#1d2848;stroke-width:6;stroke-linecap:round;stroke-linejoin:round;stroke-miterlimit:4;stroke-dasharray:none"
         d="m 207.18347,410.25455 c -13.52325,24.57611 0.16079,114.42352 -1.85951,134.12149 -2.02031,19.69798 55.57318,-1.79979 55.57318,-1.79979 L 234.49446,424.17871"
         id="path1048"
         inkscape:connector-curvature="0" />
      <path
         style="opacity:1;fill:#3250b0;stroke:#1d2848;stroke-width:6;stroke-linecap:round;stroke-linejoin:round;stroke-miterlimit:4;stroke-dasharray:none"
         d="m 340.14745,344.64961 c 1.51523,-11.11168 28.90156,-34.14706 31.44088,-40.80723 2.53931,-6.66017 -1.41498,-18.31046 1.9166,-20.11892 3.33158,-1.80846 9.50742,7.7567 11.10545,14.78948 1.59803,7.03278 -7.76345,49.43092 -5.9262,58.1261 0.73399,18.22325 -3.72097,54.50725 -3.72097,54.50725"
         id="path1050"
         inkscape:connector-curvature="0" />
      <path
         style="opacity:1;fill:#3a3c3f;stroke:#292929;stroke-width:4;stroke-linecap:round;stroke-linejoin:round;stroke-miterlimit:4;stroke-dasharray:none"
         d="m 386.52429,296.91068 c 0.50445,-6.66149 -3.36754,-20.5547 -8.49381,-24.35826 -1.38233,4.33748 -0.96125,18.0394 0.85478,21.60852 1.81603,3.56912 7.63903,2.74974 7.63903,2.74974 z"
         id="path1052"
         inkscape:connector-curvature="0" />
    </g>
    <g
       inkscape:groupmode="layer"
       id="layer5"
       inkscape:label="body"
       style="opacity:1">
      <path
         sodipodi:nodetypes="csssccccc"
         inkscape:connector-curvature="0"
         id="path1043"
         d="m 397.40507,539.57743 c 0,0 -14.98328,-96.98378 -16.23253,-123.2985 -2.02101,-42.57147 -17.23761,-65.94275 -20.75087,-103.77009 -2.31602,-24.93667 23.78498,-133.15157 14.4097,-178.79386 -6.43228,-31.31468 -24.80334,-60.022786 -54.64064,-70.16453 l -53.01253,35.22043 8.60294,180.45804 -60.22208,126.75448 46.21793,159.04748"
         style="opacity:1;fill:#3250b0;stroke:none;stroke-width:6;stroke-linecap:round;stroke-linejoin:round;stroke-miterlimit:4;stroke-dasharray:none" />
      <path
         style="opacity:1;fill:#c4d9f5;stroke:#1d2848;stroke-width:6;stroke-linecap:round;stroke-linejoin:round;stroke-miterlimit:4;stroke-dasharray:none"
         d="m 299.58966,542.36112 c -7.99706,-33.40856 -50.42175,-91.3898 -23.11284,-190.55334 8.6187,-31.29604 33.52584,-69.49017 44.03058,-112.03853 5.93491,-24.03872 -8.00258,-30.86375 -15.14892,-34.40002 -7.14635,-3.53627 -66.3821,11.26169 -72.24279,19.56284 7.02399,5.33759 10.92708,11.16795 10.63968,26.00934 -0.46082,23.79608 -36.00909,75.06298 -46.90418,98.28143 -28.0355,59.74628 26.66454,171.45591 28.64225,190.95757"
         id="path1034"
         inkscape:connector-curvature="0"
         sodipodi:nodetypes="cssscssc" />
      <path
         id="path1040"
         style="opacity:1;fill:#292f75;stroke:none;stroke-width:6;stroke-linecap:round;stroke-linejoin:round;stroke-miterlimit:4;stroke-dasharray:none"
         d="M 367.36359,376.83953 C 361.58221,363.15118 348.49965,349.47204 344.60811,323.61168 339.88727,292.24032 368.79402,168.75521 362.51203,132.50276 359.81282,116.926 348.2278,93.954355 333.29298,93.240069 L 320.19073,63.55045 c 29.8373,10.141744 48.20836,38.84985 54.64064,70.16453 9.37528,45.64229 -16.72572,153.85719 -14.4097,178.79386 3.51326,37.82734 25.86091,77.17507 27.88192,119.74654 1.24925,26.31472 9.10148,107.32205 9.10148,107.32205"
         inkscape:connector-curvature="0"
         sodipodi:nodetypes="cssccsssc" />
      <path
         style="opacity:1;fill:none;stroke:#1d2848;stroke-width:6;stroke-linecap:round;stroke-linejoin:round;stroke-miterlimit:4;stroke-dasharray:none"
         d="m 320.19073,63.55045 c 29.8373,10.141744 48.20836,38.84985 54.64064,70.16453 9.37528,45.64229 -16.72572,153.85719 -14.4097,178.79386 3.51326,37.82734 19.25009,54.47648 21.2711,97.04795 1.24925,26.31472 15.7123,130.02064 15.7123,130.02064"
         id="path1036"
         inkscape:connector-curvature="0"
         sodipodi:nodetypes="csssc" />
    </g>
    <g
       inkscape:groupmode="layer"
       id="layer6"
       inkscape:label="wing f"
       style="opacity:1">
      <path
         style="opacity:1;fill:#3250b0;stroke:none;stroke-width:4;stroke-linecap:round;stroke-linejoin:round;stroke-miterlimit:4;stroke-dasharray:none"
         d="m 355.63899,542.60196 c 0.6798,-29.08464 -0.34868,-31.26781 -3.04535,-38.73378 -2.69666,-7.46597 -13.90581,-56.24073 -5.30809,-70.58125 8.59772,-14.34052 -18.36932,-73.40457 12.243,-73.29855 11.56742,0.9926 28.5699,32.8247 30.40871,40.05965 1.83882,7.23496 0.0582,146.96344 0.0582,146.96344"
         id="path978"
         inkscape:connector-curvature="0"
         sodipodi:nodetypes="ccscsc" />
      <path
         style="opacity:1;fill:#3250b0;stroke:#1d2848;stroke-width:6;stroke-linecap:round;stroke-linejoin:round;stroke-miterlimit:4;stroke-dasharray:none"
         d="m 359.98621,534.80235 c 2.22784,-48.39487 26.43192,-141.83833 25.92684,-172.64798 23.33814,29.45121 21.31783,166.92324 7.68077,184.09586"
         id="path1054"
         inkscape:connector-curvature="0" />
      <path
         style="opacity:1;fill:#292f75;stroke:none;stroke-width:4;stroke-linecap:round;stroke-linejoin:round;stroke-miterlimit:4;stroke-dasharray:none"
         d="m 378.16141,529.19793 c 5.17691,-21.6803 2.76358,-167.5335 0.86529,-175.19545 9.71847,-4.21132 23.74531,-7.06933 23.74531,-7.06933 25.36137,44.01653 44.61685,190.15154 44.61685,190.15154"
         id="path975"
         inkscape:connector-curvature="0"
         sodipodi:nodetypes="cccc" />
      <path
         style="display:inline;opacity:1;fill:#1d2848;fill-rule:nonzero;stroke:none;stroke-width:6;stroke-linecap:round;stroke-linejoin:round;stroke-miterlimit:4;stroke-dasharray:none"
         d="m 364.47986,358.25749 c -4.27087,-1.51971 -8.40183,-0.7154 -11.24786,0.45141 -2.82298,1.15736 -4.31922,2.49447 -4.31922,2.49447 0,0 2.00358,0.1197 4.73769,0.5031 2.89974,0.40663 5.84816,1.03552 8.74061,2.1757 0.80498,0.29893 1.40558,0.64457 1.83225,0.99888 3.72662,3.09462 6.99643,9.23011 10.70208,15.43957 1.4101,2.36451 5.37301,2.94966 5.37301,2.94966 0,0 1.08022,-3.846 -0.22074,-6.02441 -3.65717,-6.12822 -7.48687,-13.21541 -12.02123,-16.98079 -1.05077,-0.87257 -2.28493,-1.52792 -3.57659,-2.00759 z"
         id="path959"
         inkscape:connector-curvature="0"
         sodipodi:nodetypes="csc"
         inkscape:path-effect="#path-effect961"
         inkscape:original-d="m 348.91278,361.20337 c 6.39548,-1.89855 13.76882,-1.50207 17.22712,1.3697 5.1631,4.28749 9.41882,13.54584 14.15852,20.69721"
         inkscape:transform-center-x="12.15325"
         inkscape:transform-center-y="-6.9939272" />
      <path
         id="path971"
         style="display:inline;opacity:1;fill:#3250b0;stroke:none;stroke-width:6;stroke-linecap:round;stroke-linejoin:round;stroke-miterlimit:4;stroke-dasharray:none"
         d="m 406.47579,351.02879 c -2.41535,-8.38462 -5.39376,-14.72797 -7.30697,-20.98123 -1.91321,-6.25326 -1.37801,-19.60267 -7.19536,-24.966 -2.85329,-2.63061 -10.65184,2.6091 -9.40204,9.75767 1.24981,7.14856 0.98384,10.74187 0.0259,17.23224 -0.95796,6.49037 -10.29814,13.3613 -9.40708,22.13058 0.76225,7.50157 1.5253,-0.28832 1.5253,-0.28832 3.54463,30.8908 4.68932,116.62836 0.52466,158.3609 2.12071,12.67087 9.78036,7.17064 10.70247,0.26752 4.55497,-48.13904 3.98477,-142.5318 0.7444,-156.73953 -0.8569,-3.75717 -1.09133,-6.46953 0.76696,-0.34958 5.8464,19.25413 17.96575,115.19645 18.12343,158.15171 -0.0486,5.64549 8.2178,4.76075 8.74447,0.58443 2.60859,-47.66737 -9.97444,-141.51015 -17.291,-163.34619 -0.69724,-4.16563 27.23766,69.74939 41.60034,163.67209 l 8.39772,-1.01716 C 434.90083,453.14971 423.71169,392.20206 406.47579,351.02879 Z"
         inkscape:connector-curvature="0"
         sodipodi:nodetypes="cscccccccsscccccc" />
      <path
         id="path957"
         style="display:inline;opacity:1;fill:none;stroke:#1d2848;stroke-width:6;stroke-linecap:round;stroke-linejoin:round;stroke-miterlimit:4;stroke-dasharray:none"
         d="m 374.71551,353.91373 c 3.54463,30.8908 4.68932,116.62836 0.52466,158.3609 2.12071,12.67087 11.70338,7.63523 12.62549,0.73211 4.55497,-48.13904 1.86469,-144.91297 -1.39553,-159.03442 5.82655,19.3404 20.80827,109.3088 19.1073,159.63243 -0.0486,5.64549 11.39435,4.76075 11.92102,0.58443 2.60859,-47.66737 -13.68471,-141.33851 -20.19744,-163.06722 11.11954,23.56971 33.40626,115.37579 39.92793,163.69695 0.71259,5.27983 7.86266,0.92805 10.09775,0.66024 -8.95154,-72.30572 -31.35248,-147.42975 -40.20876,-166.95416 -3.60445,-7.94631 -6.0359,-12.22417 -7.94911,-18.47743 -1.91321,-6.25326 -1.37801,-19.60267 -7.19536,-24.966 -2.85329,-2.63061 -12.21932,2.1307 -10.96952,9.27927 1.24981,7.14856 2.30637,10.35904 1.3484,16.84941 -0.95796,6.49037 -10.05319,14.22253 -9.16213,22.99181 0.76225,7.50157 2.95229,11.27248 2.73343,14.86548"
         inkscape:connector-curvature="0"
         sodipodi:nodetypes="cccccccscsscccsc" />
      <path
         style="display:inline;opacity:1;fill:none;stroke:#1d2848;stroke-width:6;stroke-linecap:round;stroke-linejoin:round;stroke-miterlimit:4;stroke-dasharray:none"
         d="m 348.70265,428.92634 c -12.15081,21.34227 0.93581,65.31958 3.32154,74.21125 2.38573,8.89166 3.14475,29.38764 3.14475,29.38764"
         id="path963"
         inkscape:connector-curvature="0"
         sodipodi:nodetypes="csc" />
      <path
         style="opacity:1;fill:#3a3c3f;stroke:#292929;stroke-width:4;stroke-linecap:round;stroke-linejoin:round;stroke-miterlimit:4;stroke-dasharray:none"
         d="m 384.49811,292.89039 c 4.65156,0.57267 14.3361,10.67496 13.51332,19.08446 -0.26386,2.85192 -5.96265,2.46304 -7.47019,-0.42322 -1.50753,-2.88625 -1.11513,-11.84555 -6.04313,-18.66124 z"
         id="path969"
         inkscape:connector-curvature="0"
         sodipodi:nodetypes="cccc" />
    </g>
    <g
       inkscape:groupmode="layer"
       id="layer7"
       inkscape:label="face"
       style="opacity:1">
      <path
         sodipodi:nodetypes="csssc"
         inkscape:connector-curvature="0"
         id="path1012"
         d="m 193.9279,211.34373 c 6.79072,15.79446 28.4627,24.61298 42.32566,25.71924 13.86296,1.10626 31.47559,-5.11461 38.8232,-6.23629 7.79553,-1.19006 38.89702,-3.35935 49.35982,-7.89334 14.00195,-6.06766 23.52459,-24.5078 26.7613,-39.11406 -0.30841,-9.48382 -6.78367,-17.31862 -15.56084,-18.98283 -18.19933,34.4377 -54.78293,56.38341 -78.69985,55.49025 -23.91692,-0.89317 -32.26856,-1.95088 -42.36045,-10.01822 -13.93202,0.0132 -20.64884,1.03525 -20.64884,1.03525 z"
         style="opacity:1;fill:#c4d9f5;stroke:none;stroke-width:6;stroke-linecap:round;stroke-linejoin:round;stroke-miterlimit:4;stroke-dasharray:none" />
      <path
         style="opacity:1;fill:#1d2848;fill-rule:nonzero;stroke:none;stroke-width:6;stroke-linecap:round;stroke-linejoin:round;stroke-miterlimit:4;stroke-dasharray:none"
         d="m 197.11748,211.10997 c -0.20386,-0.42313 -3.18958,0.23376 -3.18958,0.23376 0,0 -2.5217,1.73561 -2.2157,2.37065 7.87874,16.35181 30.01306,25.19877 44.30272,26.33908 14.40787,1.14975 32.63135,-5.21035 39.51457,-6.26114 7.43042,-1.13432 33.6217,-2.12613 48.39425,-9.42974 9.49585,-4.69479 17.92661,-13.64116 23.57918,-23.40002 2.28241,-3.9253 3.33227,-8.14913 3.68356,-11.57561 0.34267,-3.3424 0.0114,-5.56767 0.0114,-5.56767 0,0 -1.14996,1.93439 -2.84938,4.6014 -1.25575,1.97072 -4.43986,6.76467 -6.03751,9.53458 -5.21501,9.00343 -12.82817,16.96563 -21.04643,21.02878 -13.58627,6.71711 -38.47989,7.6312 -46.64053,8.877 -7.812,1.19257 -24.81378,7.27421 -38.13183,6.21144 -12.8047,-1.02181 -32.6794,-9.06681 -39.37472,-22.96251 z"
         id="path1010"
         inkscape:connector-curvature="0"
         sodipodi:nodetypes="csssc"
         inkscape:path-effect="#path-effect1056"
         inkscape:original-d="m 193.9279,211.34373 c 6.79072,15.79446 28.4627,24.61298 42.32566,25.71924 13.86296,1.10626 31.47559,-5.11461 38.8232,-6.23629 7.79553,-1.19006 33.33798,-2.14301 47.51739,-9.15337 13.67954,-6.76323 25.36702,-23.24777 28.60373,-37.85403" />
      <path
         sodipodi:nodetypes="ccsscc"
         inkscape:connector-curvature="0"
         id="path1030"
         d="m 305.65517,57.033766 c -2.79867,-3.248677 -13.39661,-10.184081 -25.05648,-11.582243 -2.1517,1.952762 -6.31034,7.996898 -11.23517,11.274189 -4.87012,3.240887 -30.44946,17.067244 -38.60427,33.278993 -8.15481,16.211745 -12.33201,50.512155 -14.21316,54.227355 -1.88115,3.71519 -18.6972,21.18296 -25.31734,26.43139 -22.55478,3.31691 -17.86833,32.94926 -5.39052,41.73762 9.83804,-0.72331 19.88133,-5.09569 25.08658,-2.19146 5.20526,2.90422 33.23212,15.48653 55.16772,10.69109 21.9356,-4.79545 55.4694,-23.44733 70.71407,-58.49871 -2.05623,-31.87816 -5.04717,-74.056526 -10.74049,-82.02545 -5.69332,-7.968925 -20.07599,-14.977675 -20.41094,-23.342774 z"
         style="opacity:1;fill:#3250b0;stroke:none;stroke-width:6;stroke-linecap:round;stroke-linejoin:round;stroke-miterlimit:4;stroke-dasharray:none" />
      <path
         style="opacity:1;fill:#3a3c3f;stroke:#292929;stroke-width:6;stroke-linecap:round;stroke-linejoin:round;stroke-miterlimit:4;stroke-dasharray:none"
         d="M 282.51299,45.017145 C 300.34476,26.939954 333.27543,3.5401219 349.97711,2.9999744 334.0962,17.75394 306.07419,53.920142 303.72911,58.929483"
         id="path1026"
         inkscape:connector-curvature="0" />
      <path
         style="opacity:1;fill:none;stroke:#1d2848;stroke-width:6;stroke-linecap:round;stroke-linejoin:round;stroke-miterlimit:4;stroke-dasharray:none"
         d="m 191.22875,170.66345 c 6.62014,-5.24843 23.43619,-22.7162 25.31734,-26.43139 1.88115,-3.7152 6.05835,-38.01561 14.21316,-54.227355 8.15481,-16.211749 33.73415,-30.038106 38.60427,-33.278993 4.92483,-3.277291 9.08347,-9.321427 11.23517,-11.274189 11.65987,1.398162 22.25781,8.333566 25.05648,11.582243"
         id="path1008"
         inkscape:connector-curvature="0"
         sodipodi:nodetypes="ccsscc" />
      <path
         style="opacity:1;fill:#292f75;stroke:none;stroke-width:6;stroke-linecap:round;stroke-linejoin:round;stroke-miterlimit:4;stroke-dasharray:none"
         d="m 308.84187,79.143115 c -13.74875,-7.714212 -19.68462,8.495284 -31.17913,17.023629 -5.48197,4.067346 -15.85653,6.303746 -20.84214,3.056347 -5.6956,-3.709864 -7.67831,-13.084086 -3.93561,-20.29241 6.54307,-12.601743 29.41671,-26.776233 49.67583,-21.50284 24.42849,6.35867 25.0095,8.781495 26.91855,12.960968 1.90905,4.179472 -20.6375,8.754306 -20.6375,8.754306 z"
         id="path1028"
         inkscape:connector-curvature="0"
         sodipodi:nodetypes="csssssc" />
      <path
         style="opacity:1;fill:#1d2848;fill-rule:nonzero;stroke:none;stroke-width:6;stroke-linecap:round;stroke-linejoin:round;stroke-miterlimit:4;stroke-dasharray:none"
         d="m 296.23993,54.429542 c -5.61892,0.09172 -10.63107,1.805673 -14.32359,3.748932 -3.59479,1.89183 -5.55488,3.735857 -5.55488,3.735857 0,0 2.64663,-0.490467 6.43522,-0.869862 4.45529,-0.44616 8.05616,-0.516795 13.54601,-0.615808 10.60105,-0.181598 20.3603,3.000577 26.40739,7.266165 1.47134,1.069468 3.55213,1.831184 4.9664,2.419553 1.50407,0.62573 2.68093,1.20643 2.68093,1.20643 0,0 0.15742,-1.302976 -0.39374,-3.134923 -0.56149,-1.866295 -1.8062,-4.026039 -3.79509,-5.393994 -7.20358,-5.081373 -18.26641,-8.562813 -29.96865,-8.36235 z"
         id="path1022"
         inkscape:connector-curvature="0"
         sodipodi:nodetypes="cc"
         inkscape:path-effect="#path-effect1024"
         inkscape:original-d="m 276.36146,61.914331 c 21.80663,-10.184321 47.80737,-1.326547 54.03595,9.406478" />
      <path
         style="opacity:1;fill:#3a3c3f;stroke:#292929;stroke-width:6;stroke-linecap:round;stroke-linejoin:round;stroke-miterlimit:4;stroke-dasharray:none"
         d="m 317.78767,66.593539 c 9.03437,-7.769617 71.00307,-47.867306 97.08913,-45.046327 -38.32665,21.30651 -68.55967,58.955013 -72.09056,63.742726"
         id="path1016"
         inkscape:connector-curvature="0"
         sodipodi:nodetypes="ccc" />
      <path
         style="opacity:1;fill:#ffffff;stroke:#000000;stroke-width:4;stroke-linecap:round;stroke-linejoin:round;stroke-miterlimit:4;stroke-dasharray:none"
         d="m 239.17676,96.374117 c -18.92869,-3.566883 -30.85627,13.076703 -31.57075,28.470143 -0.70637,15.21903 9.09366,25.43525 18.49338,26.42312 14.29639,1.5025 25.73925,-7.1408 29.30798,-18.8653 4.87516,-16.01657 -1.98374,-33.343315 -16.23061,-36.027963 z"
         id="path1006"
         inkscape:connector-curvature="0"
         sodipodi:nodetypes="sssss" />
      <path
         style="opacity:1;fill:#ffffff;stroke:#000000;stroke-width:4;stroke-linecap:round;stroke-linejoin:round;stroke-miterlimit:4;stroke-dasharray:none"
         d="m 323.98116,118.11374 c -1.60142,-11.54651 -17.5507,-26.238962 -38.9783,-15.09505 -11.33183,5.89337 -18.64003,22.28957 -17.08572,34.76899 1.00794,8.09273 7.88554,20.93598 22.63613,21.68298 23.82136,1.20637 35.6646,-25.22993 33.42789,-41.35692 z"
         id="path1000"
         inkscape:connector-curvature="0"
         sodipodi:nodetypes="sssss" />
      <ellipse
         style="opacity:1;fill:#1d2848;stroke:none;stroke-width:4.00536394;stroke-linecap:round;stroke-linejoin:round;stroke-miterlimit:4;stroke-dasharray:none"
         id="path980"
         cx="275.87723"
         cy="230.11208"
         rx="4.3107872"
         ry="7.5678334"
         transform="matrix(0.95054914,-0.3105742,0.37924223,0.92529743,0,0)" />
      <path
         style="opacity:1;fill:#1d2848;fill-rule:nonzero;stroke:none;stroke-width:6;stroke-linecap:round;stroke-linejoin:round;stroke-miterlimit:4;stroke-dasharray:none"
         d="m 328.70347,182.78559 c 4.2669,-5.71457 6.82838,-11.7709 8.04909,-17.05547 1.1679,-5.05599 0.92204,-8.47006 0.92204,-8.47006 0,0 -1.25679,3.181 -3.70697,7.3795 -2.91502,4.99506 -5.7448,8.64104 -10.08883,14.57916 -12.89822,17.44655 -34.69422,33.48183 -57.55773,37.33031 -34.37995,5.78698 -45.40147,-8.60187 -56.00835,-9.92351 -9.35375,-1.1655 -18.52331,4.68764 -25.36379,1.32144 -8.04197,-3.95747 -9.72168,-25.37254 1.17959,-31.9947 3.98176,-2.41878 7.91342,-1.83558 11.31346,0.2975 2.75654,1.69753 4.20969,2.55913 6.6594,4.25417 1.94832,1.34811 3.34763,2.40736 3.34763,2.40736 0,0 -0.0411,-1.75289 -0.93871,-4.20969 -0.90921,-2.4886 -2.72201,-5.52612 -5.87967,-7.53441 -5.11136,-3.20671 -11.30022,-4.18026 -17.61719,-0.34291 -14.47041,8.79028 -13.49604,36.21595 -0.71371,42.50614 9.06716,4.46196 19.8103,-1.68058 27.27111,-0.75094 7.51108,0.93589 22.3491,15.8445 57.74617,9.88631 24.42412,-4.11117 47.82429,-21.33557 61.38646,-39.6802 z"
         id="path982"
         inkscape:connector-curvature="0"
         sodipodi:nodetypes="cssssc"
         inkscape:path-effect="#path-effect984"
         inkscape:original-d="m 337.6746,157.26006 c -4.61801,24.24109 -36.64194,56.48837 -70.85556,62.24735 -34.89122,5.87304 -47.82653,-8.77717 -56.87726,-9.90491 -8.40728,-1.04757 -18.36363,4.95027 -26.31745,1.03619 -10.41215,-5.12383 -11.73919,-29.5442 0.94665,-37.25042 9.34474,-5.67662 18.39603,1.51173 22.87803,9.52302" />
      <path
         style="opacity:1;fill:#1d2848;fill-rule:nonzero;stroke:none;stroke-width:6;stroke-linecap:round;stroke-linejoin:round;stroke-miterlimit:4;stroke-dasharray:none"
         d="m 264.7421,179.73008 c 2.26195,0.72706 4.70506,1.2607 6.69869,1.8184 1.99303,0.55753 3.48832,1.05604 3.48832,1.05604 0,0 -0.376,-1.52979 -1.68907,-3.45608 -1.3336,-1.9564 -3.57375,-4.12642 -6.65091,-5.127 -11.32584,-3.66446 -23.9615,0.61841 -31.64274,2.28292 -1.598,0.29233 -2.84716,1.39098 -3.82742,2.1661 -0.99917,0.79007 -1.93146,1.38195 -1.93146,1.38195 0,0 0.64991,0.89365 2.06776,1.60052 1.44477,0.72031 3.38373,1.11379 4.96181,0.71533 8.18729,-1.77417 19.14809,-5.47208 28.52502,-2.43818 z"
         id="path986"
         inkscape:connector-curvature="0"
         sodipodi:nodetypes="cc"
         inkscape:path-effect="#path-effect988"
         inkscape:original-d="m 274.92911,182.60452 c -14.65303,-14.80597 -37.81507,-1.4004 -45.7416,-2.75211" />
      <path
         style="opacity:1;fill:#3250b0;stroke:none;stroke-width:6;stroke-linecap:round;stroke-linejoin:round;stroke-miterlimit:4;stroke-dasharray:none"
         d="m 270.39984,161.61219 c 6.88595,-5.2378 12.04456,-8.04981 21.30985,-7.60855 9.26529,0.44126 22.64683,2.90817 26.21821,4.87246 3.57139,1.96428 -11.13174,14.31815 -23.06848,12.18573 -11.93673,-2.13241 -24.45958,-9.44964 -24.45958,-9.44964 z"
         id="path1002"
         inkscape:connector-curvature="0" />
      <path
         style="opacity:1;fill:#1d2848;fill-rule:nonzero;stroke:none;stroke-width:6;stroke-linecap:round;stroke-linejoin:round;stroke-miterlimit:4;stroke-dasharray:none"
         d="m 274.88573,155.13879 c -1.7139,0.73585 -2.0813,2.21944 -2.49258,3.19065 -0.41374,0.97699 -1.12622,1.68816 -1.12622,1.68816 0,0 0.64054,0.80035 2.20322,1.07457 1.60744,0.28207 3.47279,-0.045 4.2808,-0.68171 3.1355,-1.70418 6.716,-3.5292 10.45149,-3.71446 8.24529,-0.40892 16.05081,1.94493 21.5548,3.36958 1.13596,0.35172 2.79283,0.0387 4.05467,-0.58525 1.24433,-0.61533 1.81625,-1.42695 1.81625,-1.42695 0,0 -0.71568,-0.68842 -1.41532,-1.5335 -0.69591,-0.84058 -1.53796,-1.95371 -2.95211,-2.26287 -5.33033,-1.37971 -14.11713,-4.01182 -23.35549,-3.55365 -5.04468,0.25019 -9.79752,2.68424 -13.01951,4.43543 z"
         id="path990"
         inkscape:connector-curvature="0"
         sodipodi:nodetypes="csc"
         inkscape:path-effect="#path-effect992"
         inkscape:original-d="m 271.26693,160.0176 c 2.33198,0.0992 9.2283,-5.94305 16.78691,-6.31792 12.41043,-0.61549 23.92264,4.66726 27.57432,4.3537" />
      <path
         style="opacity:1;fill:#3250b0;stroke:none;stroke-width:6;stroke-linecap:round;stroke-linejoin:round;stroke-miterlimit:4;stroke-dasharray:none"
         d="m 216.57024,151.0323 -0.56551,-3.47586 c 4.80935,-2.16814 16.69561,-2.90137 25.36987,6.0043 -3.23015,5.36715 -24.06462,2.88504 -24.80436,-2.52844 z"
         id="path1032"
         inkscape:connector-curvature="0" />
      <path
         style="opacity:1;fill:#1d2848;fill-rule:nonzero;stroke:none;stroke-width:6;stroke-linecap:round;stroke-linejoin:round;stroke-miterlimit:4;stroke-dasharray:none"
         d="m 234.98582,152.43162 c 1.84176,1.38629 4.01861,2.53953 6.15273,3.23016 1.37358,0.58165 2.80387,0.74381 3.81703,0.5769 0.96019,-0.15819 1.34406,-0.54318 1.34406,-0.54318 0,0 -0.53877,-0.11513 -1.09624,-0.5971 -0.56248,-0.48629 -1.05269,-1.47437 -1.99,-2.45002 -1.12784,-1.50171 -2.62407,-3.51099 -4.62113,-5.01192 -3.65512,-2.74902 -8.47836,-5.82155 -14.08097,-5.80109 -7.74483,0.0282 -12.50219,2.97869 -15.30838,5.15504 -0.89589,0.69726 0.3053,3.62683 0.3053,3.62683 0,0 2.70143,1.63188 3.37176,1.11439 2.12399,-1.64725 5.8012,-3.87495 11.65322,-3.8963 3.64806,-0.0133 7.06729,2.05018 10.45262,4.59629 z"
         id="path994"
         inkscape:connector-curvature="0"
         sodipodi:nodetypes="csc"
         inkscape:path-effect="#path-effect996"
         inkscape:original-d="m 246.29964,155.6955 c -4.33829,0.82976 -11.91093,-10.89618 -21.7774,-10.86015 -8.49802,0.031 -12.96302,4.06867 -15.01402,5.78189" />
      <ellipse
         style="opacity:1;fill:#f01d0a;stroke:none;stroke-width:6.71697426;stroke-linecap:round;stroke-linejoin:round;stroke-miterlimit:4;stroke-dasharray:none"
         id="path998"
         cx="301.01547"
         cy="105.87669"
         rx="13.024788"
         ry="17.627987"
         transform="rotate(4.2999669)" />
      <ellipse
         style="opacity:1;fill:#f01d0a;stroke:none;stroke-width:4.08776379;stroke-linecap:round;stroke-linejoin:round;stroke-miterlimit:4;stroke-dasharray:none"
         id="path1004"
         cx="237.57472"
         cy="112.62767"
         rx="11.758885"
         ry="16.996178"
         transform="rotate(2.584879)" />
      <path
         inkscape:connector-curvature="0"
         id="path1018"
         d="m 296.64804,81.07493 c 2.96457,-2.689052 17.66294,-13.47806 21.36745,-15.175941 7.38801,0.384102 21.58559,9.96143 27.6059,16.34833 -4.50333,5.237947 -13.40379,13.025806 -14.43385,16.893752"
         style="opacity:1;fill:#3250b0;stroke:none;stroke-width:6;stroke-linecap:round;stroke-linejoin:round;stroke-miterlimit:4;stroke-dasharray:none" />
      <path
         style="opacity:1;fill:#1d2848;fill-rule:nonzero;stroke:none;stroke-width:6;stroke-linecap:round;stroke-linejoin:round;stroke-miterlimit:4;stroke-dasharray:none"
         d="m 301.83232,73.215057 c -1.77179,1.307386 -3.14084,3.224277 -4.01392,4.900791 -0.86337,1.657895 -1.17036,2.959082 -1.17036,2.959082 0,0 1.32239,-0.19561 3.04512,-0.617732 1.70217,-0.417083 3.92862,-1.093535 5.71262,-2.422356 4.83021,-3.581195 10.76096,-7.690059 13.20102,-9.064839 5.80187,0.836971 16.68154,7.7691 22.85515,13.403157 -2.22347,2.365786 -4.97212,5.072298 -7.36447,7.654329 -1.53925,1.491123 -2.67336,3.750446 -3.04508,5.848685 -0.35735,2.01708 0.13514,3.264897 0.13514,3.264897 0,0 0.98971,-0.892377 2.37182,-1.659909 1.31018,-0.727587 3.46168,-1.623514 4.93935,-3.375778 3.04001,-3.281047 6.8495,-6.938602 9.39752,-9.902273 a 3,3 0 0 0 -0.0918,-4.013537 C 341.49012,73.49077 326.75085,63.349088 318.17125,62.903035 a 3,3 0 0 0 -1.40571,0.268754 c -2.84936,1.305943 -9.52983,6.037103 -14.93322,10.043268 z"
         id="path1014"
         inkscape:connector-curvature="0"
         inkscape:path-effect="#path-effect1020"
         inkscape:original-d="m 296.64804,81.07493 c 2.96457,-2.689052 17.66294,-13.47806 21.36745,-15.175941 7.38801,0.384102 21.58559,9.96143 27.6059,16.34833 -4.50333,5.237947 -13.40379,13.025806 -14.43385,16.893752" />
      <ellipse
         style="fill:#000000;stroke:none;stroke-width:7.01152754;stroke-linecap:round;stroke-linejoin:round"
         id="path891"
         cx="235.63322"
         cy="116.36194"
         rx="6.2280946"
         ry="11.493416"
         transform="rotate(1.6920275)" />
      <ellipse
         style="opacity:1;fill:#000000;stroke:none;stroke-width:7.57597256;stroke-linecap:round;stroke-linejoin:round"
         id="path891-3"
         cx="304.64877"
         cy="96.641335"
         rx="7.3902516"
         ry="12.355186"
         transform="matrix(0.99424337,0.10714533,-0.10916474,0.99402367,0,0)" />
      <ellipse
         style="fill:#ffffff;stroke:none;stroke-width:6.60397816;stroke-linecap:round;stroke-linejoin:round"
         id="path916"
         cx="239.07036"
         cy="94.101128"
         rx="2.9220405"
         ry="4.7281637"
         transform="rotate(6.2234324)" />
      <ellipse
         style="fill:#ffffff;stroke:none;stroke-width:7.62154245;stroke-linecap:round;stroke-linejoin:round"
         id="path918"
         cx="306.07925"
         cy="64.036934"
         rx="3.6399939"
         ry="5.450078"
         transform="rotate(11.352642)" />
    </g>
    <g
       inkscape:groupmode="layer"
       id="layer8"
       inkscape:label="arm f"
       style="display:inline;opacity:1">
      <path
         style="opacity:1;fill:#3250b0;fill-rule:nonzero;stroke:none;stroke-width:6;stroke-linecap:round;stroke-linejoin:round;stroke-miterlimit:4;stroke-dasharray:none"
         d="m 107.43402,212.38793 c -5.96434,0.14466 -12.226416,4.90922 -14.855466,11.85351 -3.47761,9.18566 -6.058707,26.67241 -11.410158,31.41602 -7.692148,-2.48718 -16.448193,-7.73855 -20.769531,-7.50977 -5.006302,0.26505 -11.189689,12.75593 -7.871094,20.5332 -12.8875,1.50141 -14.961848,19.18896 -9.248047,24.42969 -8.324618,10.38588 -0.01163,20.843 5.359375,23.74805 5.654746,3.05852 17.606349,6.04559 23.080078,6.95117 5.473731,0.90559 12.289574,0.8246 14.587891,0.97656 3.103976,0.20523 7.826356,2.22751 9.810546,5.19727 14.013746,20.97454 32.367896,77.45956 60.412106,101.35742 35.555,30.29816 70.38637,14.11049 74.95703,14.28906 l 0.0762,-0.0723 c 20.08847,1.85604 47.64685,4.27303 69.63282,2.89844 32.4349,-2.02788 47.56452,-13.74451 57.22587,-23.15057 l -38.62987,-53.02665 c -19.12729,-9.58955 -77.311,-3.74528 -122.82452,13.90573 -22.29173,-47.98872 -80.15473,-102.77667 -84.0332,-123.92773 -2.46288,-13.43116 10.79026,-34.5392 4.06445,-44.61328 -2.51524,-3.76739 -5.98585,-5.34267 -9.56445,-5.25586 z"
         id="path942"
         inkscape:connector-curvature="0"
         sodipodi:nodetypes="csccccscsssccscccsscc" />
      <path
         style="opacity:1;fill:#1d2848;fill-rule:nonzero;stroke:none;stroke-width:6;stroke-linecap:round;stroke-linejoin:round;stroke-miterlimit:4;stroke-dasharray:none"
         d="m 213.73094,441.04503 c -1.93541,-0.18686 -4.10433,0.32085 -5.77999,1.11554 -1.63633,0.77604 -2.48548,1.70175 -2.48548,1.70175 0,0 1.1254,0.55544 2.503,1.29254 1.34381,0.71901 3.19982,1.73721 5.2871,1.87131 16.65311,1.32356 54.05815,6.55095 83.89318,4.68562 25.69988,-1.60679 42.03525,-6.98917 52.89178,-14.08709 2.13795,-1.39656 3.63943,-3.49525 4.55739,-5.28215 0.90836,-1.7682 1.21512,-3.13935 1.21512,-3.13935 0,0 -1.37175,0.30973 -3.16684,0.86152 -1.75577,0.53971 -4.06573,1.34485 -5.88898,2.53804 -9.72913,6.36083 -24.94685,11.55544 -49.98287,13.12073 -29.32979,1.83373 -66.12488,-3.3338 -83.04341,-4.67846 z"
         id="path902"
         inkscape:connector-curvature="0"
         sodipodi:nodetypes="csc"
         inkscape:path-effect="#path-effect904"
         inkscape:original-d="m 205.46547,443.86232 c 7.31483,-1.26239 55.09636,7.13108 91.49608,4.85532 32.4349,-2.02788 49.19014,-10.10838 58.85149,-19.51444" />
      <path
         style="opacity:1;fill:#c4d9f5;stroke:none;stroke-width:6;stroke-linecap:round;stroke-linejoin:round;stroke-miterlimit:4;stroke-dasharray:none"
         d="m 114.21043,215.07322 c -7.40492,1.38896 -15.022076,15.20152 -16.689176,21.32015 -1.63698,6.00808 -7.45138,20.09604 -10.199339,21.37508 -4.899862,-1.58208 -4.887427,-3.84786 -4.887427,-3.84786 6.246416,-6.7048 8.177826,-31.21628 11.947766,-33.94292 3.76995,-2.72664 15.104316,-12.12276 19.828176,-4.90445 z"
         id="path953"
         inkscape:connector-curvature="0"
         sodipodi:nodetypes="cscccc" />
      <path
         style="opacity:1;fill:#1d2848;fill-rule:nonzero;stroke:none;stroke-width:6;stroke-linecap:round;stroke-linejoin:round;stroke-miterlimit:4;stroke-dasharray:none"
         d="m 76.762258,257.54598 c 2.613346,1.23325 5.638585,1.65713 8.170409,1.34177 2.424947,-0.30205 3.737047,-1.2213 3.737047,-1.2213 0,0 -1.478975,-0.59652 -3.149789,-1.69673 -1.484452,-0.97749 -3.929229,-2.9608 -6.373789,-3.92984 -6.550956,-2.83625 -13.991362,-7.14783 -18.905813,-6.88763 -6.788011,0.35937 -12.451332,11.90916 -11.329274,20.24471 0.390449,3.02685 2.49091,5.12799 4.390952,6.06264 1.886978,0.92823 3.247559,0.69846 3.247559,0.69846 0,0 -0.674537,-1.18684 -1.056181,-2.70861 -0.382169,-1.52386 -0.410876,-3.29974 -0.635962,-4.85294 -0.84825,-6.30147 3.862341,-13.35536 5.700125,-13.45266 2.618606,-0.13864 9.450597,3.47791 16.204716,6.40213 z"
         id="path925"
         inkscape:connector-curvature="0"
         inkscape:path-effect="#path-effect927"
         inkscape:original-d="m 88.669714,257.66645 c -7.466253,0.59046 -22.218603,-9.83883 -28.270784,-9.5184 -6.052181,0.32042 -13.825548,18.50822 -3.84937,24.01001"
         sodipodi:nodetypes="csc" />
      <path
         style="opacity:1;fill:#1d2848;fill-rule:nonzero;stroke:none;stroke-width:6;stroke-linecap:round;stroke-linejoin:round;stroke-miterlimit:4;stroke-dasharray:none"
         d="m 313.51532,373.0757 c 2.25775,0.4641 4.85705,0.33353 6.69588,0.24118 1.91679,-0.0963 3.3724,-0.18226 3.3724,-0.18226 0,0 -0.75394,-1.24769 -2.34598,-2.63255 -1.62244,-1.4113 -3.94357,-2.8048 -6.54782,-3.31029 -25.48938,-5.08789 -76.63267,0.47039 -116.20243,15.20627 -23.19922,-47.61651 -78.98579,-100.95614 -82.60299,-120.68236 -2.25779,-12.3127 11.29604,-34.22366 3.60916,-45.73728 -8.24848,-12.35478 -24.769401,-5.87944 -29.721387,7.20058 -3.525114,9.31114 -6.091259,25.85622 -10.145481,29.79525 -0.01528,0.0148 1.861651,2.36341 1.861651,2.36341 0,0 2.111025,2.14259 2.319413,1.93993 5.710745,-5.54849 8.251864,-23.1946 11.575739,-31.97419 3.451034,-9.11545 13.974415,-13.70062 19.119985,-5.99344 5.74234,8.60101 -7.19343,28.91223 -4.52068,43.48792 4.07571,22.22672 62.08918,76.91412 84.26389,124.65092 a 3,3 0 0 0 3.80552,1.53316 c 39.31235,-15.24608 90.60867,-20.8674 115.46313,-15.90625 z"
         id="path929"
         inkscape:connector-curvature="0"
         sodipodi:nodetypes="ccsssc"
         inkscape:path-effect="#path-effect931"
         inkscape:original-d="m 323.5836,373.13462 c -19.1273,-9.58955 -81.10263,-4.6007 -126.61615,13.05031 -22.29173,-47.98872 -80.1554,-102.77709 -84.03387,-123.92815 -2.46288,-13.43116 10.79073,-34.53851 4.06492,-44.6126 -6.7073,-10.04637 -20.214206,-4.51385 -24.420686,6.59701 -3.47761,9.18566 -6.057133,26.67322 -11.089491,31.09646" />
      <path
         style="opacity:1;fill:none;stroke:#1d2848;stroke-width:6;stroke-linecap:round;stroke-linejoin:round;stroke-miterlimit:4;stroke-dasharray:none"
         d="m 52.187117,269.0352 c -12.547406,1.14726 -14.621499,18.83412 -8.907698,24.07485 -8.324618,10.38588 -0.01163,20.84393 5.359377,23.74898 5.654746,3.05852 17.60591,6.04594 23.079639,6.95152 5.473731,0.90559 12.290236,0.82455 14.588553,0.97651 3.103976,0.20523 7.826546,2.22608 9.810736,5.19584 14.013746,20.97454 32.368746,77.45945 60.412956,101.35731 35.555,30.29816 70.38592,14.11162 74.95658,14.29019"
         id="path933"
         inkscape:connector-curvature="0"
         sodipodi:nodetypes="ccsssssc" />
      <path
         style="fill:#3a3c3f;stroke:#292929;stroke-width:4;stroke-linecap:round;stroke-linejoin:round;stroke-miterlimit:4;stroke-dasharray:none"
         d="m 118.06892,228.9586 c 3.11242,-5.09132 1.19462,-25.24726 -0.63085,-29.42363 -1.05331,-2.40978 -4.35135,-5.22023 -8.22908,-5.38082 1.84322,8.46316 -1.85237,27.3745 -0.93247,30.46949 0.58975,1.9842 7.38969,8.26535 9.7924,4.33496 z"
         id="path900"
         inkscape:connector-curvature="0"
         sodipodi:nodetypes="sscss" />
    </g>
  </g>
</svg>
